// EVENT 4176
Name "Jaide"

If(0,25,1)
 221()
 PictureClear(5)
 PictureClear(6)
 ShowMessageFace("",0,0,2,0)
 ShowMessage("......")
 242(2)
 Wait(120)
 241(bytes(0x04,0x08,0x6f,0x3a,0x0d,0x52,0x50,0x47,0x3a,0x3a,0x42,0x47,0x4d,0x08,0x3a,0x0a,0x40,0x6e,0x61,0x6d,0x65,0x49,0x22,0x0c,0x63,0x61,0x73,0x74,0x6c,0x65,0x36,0x06,0x3a,0x06,0x45,0x54,0x3a,0x0c,0x40,0x76,0x6f,0x6c,0x75,0x6d,0x65,0x69,0x69,0x3a,0x0b,0x40,0x70,0x69,0x74,0x63,0x68,0x69,0x69))
 EndEventProcessing()
 0()
EndIf()
PictureDisplay(5,"80_jeid_st01",0,0,0,0,100,100,255,0)
ShowMessageFace("jeid_fc1",0,0,2,1)
ShowMessage("\\n<Jaide>Understood, confirmed.\nYou wish for your semen to be extracted with my extract function.")
ShowMessageFace("",0,0,2,2)
ShowMessage("\\n<Luka>Y...Yes... Please...")
ShowMessageFace("jeid_fc1",0,0,2,3)
ShowMessage("\\n<Jaide>Acknowledged, let us begin semen disposure then.\nCome this way...")
ShowMessageFace("",0,0,2,4)
ShowMessage("I follow Jaide to her room...")
221()
PictureDisplay(1,"bg195",0,0,0,0,100,100,255,0)
PictureDisplay(5,"ev_jeid_h08",0,0,0,0,100,100,255,0)
222()
241(bytes(0x04,0x08,0x6f,0x3a,0x0d,0x52,0x50,0x47,0x3a,0x3a,0x42,0x47,0x4d,0x08,0x3a,0x0a,0x40,0x6e,0x61,0x6d,0x65,0x49,0x22,0x09,0x65,0x72,0x6f,0x31,0x06,0x3a,0x06,0x45,0x54,0x3a,0x0c,0x40,0x76,0x6f,0x6c,0x75,0x6d,0x65,0x69,0x69,0x3a,0x0b,0x40,0x70,0x69,0x74,0x63,0x68,0x69,0x69))
ShowMessageFace("",0,0,2,5)
ShowMessage("Jaide tightly restrains my body against her.")
ShowMessage("She's holding me so tightly, I don't think I could escape.")
ShowMessageFace("",0,0,2,6)
ShowMessage("\\n<Luka>Aaah...")
ShowMessageFace("",0,0,2,7)
ShowMessage("A gel-like mucus begins to excrete near my waist.")
ShowMessage("With it touching my body so close, it's a strange sensation.")
ShowMessageFace("jeid_fc1",0,0,2,8)
ShowMessage("\\n<Jaide>Restraint completed.\nSemen shall be collected by simulated intercourse.")
ShowMessageFace("",0,0,2,9)
ShowMessage("With no emotion, Jaide presses me down into her...")
245(bytes(0x04,0x08,0x6f,0x3a,0x0d,0x52,0x50,0x47,0x3a,0x3a,0x42,0x47,0x53,0x08,0x3a,0x0a,0x40,0x6e,0x61,0x6d,0x65,0x49,0x22,0x17,0x6d,0x6f,0x6e,0x5f,0x68,0x73,0x65,0x61,0x6e,0x31,0x35,0x5f,0x6b,0x79,0x75,0x69,0x6e,0x32,0x06,0x3a,0x06,0x45,0x54,0x3a,0x0c,0x40,0x76,0x6f,0x6c,0x75,0x6d,0x65,0x69,0x55,0x3a,0x0b,0x40,0x70,0x69,0x74,0x63,0x68,0x69,0x69))
PictureDisplay(5,"ev_jeid_h09",0,0,0,0,100,100,255,0)
ShowMessageFace("",0,0,2,10)
ShowMessage("Like that, my penis is easily forced into her body.")
ShowMessage("I quickly sink into her mucus-filled depths.")
ShowMessageFace("",0,0,2,11)
ShowMessage("\\n<Luka>Ah... Aaah!!")
PictureDisplay(5,"ev_jeid_h10",0,0,0,0,100,100,255,0)
ShowMessageFace("",0,0,2,12)
ShowMessage("It almost feels like jelly inside of her.")
ShowMessage("Like slime with high viscosity, pushing back against me.")
ShowMessageFace("",0,0,2,13)
ShowMessage("Her semi-solid gel encases my penis from tip to root.")
ShowMessage("I moan as the strange sensation assaults me.")
ShowMessageFace("",0,0,2,14)
ShowMessage("More of the gel flows from her body down my front.")
ShowMessage("Leaking from all over her, it feels amazing.")
ShowMessageFace("",0,0,2,15)
ShowMessage("\\n<Luka>Ah... Nnngh...Ugh...!")
ShowMessageFace("",0,0,2,16)
ShowMessage("There's no way I can hold on inside of her...")
ShowMessage("On instinct, I try to pull my waist back away from her.")
ShowMessageFace("jeid_fc1",0,0,2,17)
ShowMessage("\\n<Jaide>...Semen collection has not yet concluded.\nInterruptions are impossible.")
ShowMessageFace("",0,0,2,18)
ShowMessage("Jaide's legs forcefully push back, pressing me back into her.")
ShowMessage("I'm no longer able to move even an inch out of her...")
ShowMessageFace("",0,0,2,19)
ShowMessage("\\n<Luka>Ah... Ooooh...!")
ShowMessageFace("",0,0,2,20)
ShowMessage("I'm now almost attached to her.")
ShowMessage("The gel-like mucus all starts to squirm, at the same time.")
ShowMessageFace("",0,0,2,21)
ShowMessage("The undulating motion surrounds my penis.")
ShowMessage("Unable to pull out of her, I can't do anything but be assaulted by the pleasure.")
ShowMessageFace("",0,0,2,22)
ShowMessage("\\n<Luka>Unnngh...Th...This...!")
ShowMessageFace("jeid_fc1",0,0,2,23)
ShowMessage("\\n<Jaide>My internals move on their own. Waist moving is unnecessary.\nPlease cease moving, and simply ejaculate.")
ShowMessageFace("",0,0,2,24)
ShowMessage("\\n<Luka>Ah, aaaah...!")
ShowMessageFace("",0,0,2,25)
ShowMessage("I clench my waist area, trying to stop my rising climax...")
ShowMessage("But the merciless undulations don't slow down at all.")
ShowMessageFace("",0,0,2,26)
ShowMessage("Covered in the gel, my end is quickly approaching.")
ShowMessage("The wavy motions go from my base to the tip, only increasing in pleasure.")
ShowMessageFace("",0,0,2,27)
ShowMessage("\\n<Luka>Can't hold back... I'm coming!")
ShowMessageFace("jeid_fc1",0,0,2,28)
ShowMessage("\\n<Jaide>Ejaculation is imminent? Then...")
PictureDisplay(5,"ev_jeid_h11",0,0,0,0,100,100,255,0)
ShowMessageFace("",0,0,2,29)
ShowMessage("Jaide suddenly opens her mouth, extending her tongue.")
ShowMessage("With my mouth hanging open in pleasure, she presses her tongue against mine.")
ShowMessageFace("",0,0,2,30)
ShowMessage("Jaide's saliva mixes with my own.")
ShowMessage("The sweet contact of our tongues races through me.")
ShowMessageFace("",0,0,2,31)
ShowMessage("At the same time, her vagina presses down on my penis.")
ShowMessage("The dual stimulation forces me to climax at once.")
RunCommonEvent(104)
PictureDisplay(5,"ev_jeid_h12",0,0,0,0,100,100,255,0)
RunCommonEvent(105)
ShowMessageFace("",0,0,2,32)
ShowMessage("\\n<Luka>Aaah...")
ShowMessageFace("",0,0,2,33)
ShowMessage("With my tongue caught by Jaide's own, I come inside her.")
ShowMessage("My semen pours into her gel-like vagina.")
PictureDisplay(5,"ev_jeid_h13",0,0,0,0,100,100,255,0)
ShowMessageFace("",0,0,2,34)
ShowMessage("\\n<Luka>Unnngh...That feels so good...")
ShowMessageFace("",0,0,2,35)
ShowMessage("Even as I come, Jaide keeps my waist firmly pressed against her.")
ShowMessage("Her squirming vagina squeezes out every last drop of semen.")
PictureDisplay(5,"ev_jeid_h14",0,0,0,0,100,100,255,0)
ShowMessageFace("jeid_fc1",0,0,2,36)
ShowMessage("\\n<Jaide>Ejaculation confirmed. Scanning semen...\n...High quantity of sperm detected. Good quality.")
ShowMessageFace("",0,0,2,37)
ShowMessage("\\n<Luka>Nnngh...")
ShowMessageFace("",0,0,2,38)
ShowMessage("Weakened, my body hangs loose against her.")
ShowMessage("It feels so good having my semen collected...")
ShowMessageFace("jeid_fc1",0,0,2,39)
ShowMessage("\\n<Jaide>More semen is requested for sampling.\nSemen collection shall continue. Vaginal movement shall resume.")
ShowMessageFace("",0,0,2,40)
ShowMessage("\\n<Luka>Aaaaah...")
ShowMessageFace("",0,0,2,41)
ShowMessage("The gel-like vaginal walls starts to move again.")
ShowMessage("Already too weak after my orgasm...")
PictureDisplay(5,"ev_jeid_h16",0,0,0,0,100,100,255,0)
ShowMessageFace("",0,0,2,42)
ShowMessage("I cling against her to support myself.")
ShowMessage("A prisoner to the pleasure, I stop trying to resist.")
ShowMessageFace("",0,0,2,43)
ShowMessage("We're now embracing each other...")
ShowMessage("My penis deep inside of her, basking in ecstasy.")
ShowMessageFace("",0,0,2,44)
ShowMessage("\\n<Luka>Nnngh...So good...")
ShowMessageFace("jeid_fc1",0,0,2,45)
ShowMessage("\\n<Jaide>Deposit your semen inside my vagina.\nAs a reminder, no waist movement is necessary.")
PictureDisplay(5,"ev_jeid_h17",0,0,0,0,100,100,255,0)
ShowMessageFace("",0,0,2,46)
ShowMessage("With that reminder, Jaide's tongue stretches out again.")
ShowMessage("Melting in ecstasy, I eagerly accept it.")
PictureDisplay(5,"ev_jeid_h18",0,0,0,0,100,100,255,0)
ShowMessageFace("",0,0,2,47)
ShowMessage("Our tongues tangle together.")
ShowMessage("The sweet feeling of her saliva goes straight to my head.")
PictureDisplay(5,"ev_jeid_h19",0,0,0,0,100,100,255,0)
ShowMessageFace("",0,0,2,48)
ShowMessage("All the while, the undulations inside her continue.")
ShowMessage("It's like my penis is dissolving away in pleasure inside her...")
PictureDisplay(5,"ev_jeid_h20",0,0,0,0,100,100,255,0)
ShowMessageFace("",0,0,2,49)
ShowMessage("\\n<Luka>Nnngh... Ah, aaah...")
ShowMessageFace("",0,0,2,50)
ShowMessage("I tremble in bliss in her embrace.")
ShowMessage("Giving everything over, I entrust my body to her.")
ShowMessageFace("",0,0,2,51)
ShowMessage("For Jaide, this is just semen extraction...")
ShowMessage("Even though this is a horrifying act...")
ShowMessageFace("",0,0,2,52)
ShowMessage("\\n<Luka>Aaaaah...")
ShowMessageFace("",0,0,2,53)
ShowMessage("I'm completely enthralled in Jaide's embrace.")
ShowMessage("At this rate, my semen will be taken again soon...")
ShowMessageFace("jeid_fc1",0,0,2,54)
ShowMessage("\\n<Jaide>...Nearing climax detected.\nSimply lay back and ejaculate.")
ShowMessageFace("",0,0,2,55)
ShowMessage("\\n<Luka>Unnngh...")
ShowMessageFace("",0,0,2,56)
ShowMessage("As Jaide instructs, I lay back and stop trying to hold it in.")
ShowMessage("A sweet feeling of numbness crawls up my body from my waist.")
PictureDisplay(5,"ev_jeid_h21",0,0,0,0,100,100,255,0)
ShowMessageFace("jeid_fc1",0,0,2,57)
ShowMessage("\\n<Jaide>Nnn... *Suck*")
ShowMessageFace("",0,0,2,58)
ShowMessage("Suddenly, Jaide presses against me, taking in my lips!")
ShowMessage("The moment our lips press together, my head goes pure white.")
RunCommonEvent(104)
PictureDisplay(5,"ev_jeid_h22",0,0,0,0,100,100,255,0)
RunCommonEvent(105)
ShowMessageFace("",0,0,2,59)
ShowMessage("\\n<Luka>Ah, aaaah...!!")
ShowMessageFace("",0,0,2,60)
ShowMessage("Clinging to her body, I spurt more semen inside.")
ShowMessage("While kissing, I succumbed to the intense pleasure...")
PictureDisplay(5,"ev_jeid_h23",0,0,0,0,100,100,255,0)
ShowMessageFace("",0,0,2,61)
ShowMessage("A thread of spit connects my tongue to hers.")
ShowMessage("Without ever stopping, the undulating motions in her vagina continue..")
PictureDisplay(5,"ev_jeid_h24",0,0,0,0,100,100,255,0)
ShowMessageFace("",0,0,2,62)
ShowMessage("\\n<Luka>Nnngh...")
ShowMessageFace("",0,0,2,63)
ShowMessage("After that ejaculation, I'm left exhausted.")
ShowMessage("My body relaxes as I leave myself to Jaide's embrace.")
ShowMessageFace("jeid_fc1",0,0,2,64)
ShowMessage("\\n<Jaide>...Confirming remaining semen.\nRemaining semen shall be collected, is this acceptable?")
ShowMessageFace("",0,0,2,65)
ShowMessage("\\n<Luka>Ah... More...\nAaaah...!!")
ShowMessageFace("",0,0,2,66)
ShowMessage("Jaide's assault isn't over yet.")
ShowMessage("Her vagina continues stimulating me, trying to draw out the last of my semen.")
ShowMessageFace("",0,0,2,67)
ShowMessage("\\n<Luka>I...Impossible... No more will come out...\nNnngh...")
ShowMessageFace("",0,0,2,68)
ShowMessage("Despite saying that, my body is completely loose.")
ShowMessage("I can't do a thing to stop Jaide from extracting as much as she wants.")
ShowMessageFace("jeid_fc1",0,0,2,69)
ShowMessage("\\n<Jaide>That statement is false.\nSemen injection is possible a minimum of two times more.")
ShowMessageFace("",0,0,2,70)
ShowMessage("\\n<Luka>Hyaaa...!!")
ShowMessageFace("",0,0,2,71)
ShowMessage("Wrapped her in gel vagina, the stimulation is crushing.")
ShowMessage("That sweet sensation, driving even more semen from me...")
RunCommonEvent(104)
PictureDisplay(5,"ev_jeid_h25",0,0,0,0,100,100,255,0)
RunCommonEvent(105)
ShowMessageFace("",0,0,2,72)
ShowMessage("In the next instant, I come yet again.")
ShowMessage("Unlike a normal ejaculation, this one felt almost forced.")
ShowMessageFace("",0,0,2,73)
ShowMessage("\\n<Luka>Nnngh...")
ShowMessageFace("jeid_fc1",0,0,2,74)
ShowMessage("\\n<Jaide>Subject's penis appears to be getting loose.\nContinuous ejaculation can be implemented in this situation.")
ShowMessageFace("",0,0,2,75)
ShowMessage("\\n<Luka>Ah...! Ah... Aaaah!!")
ShowMessageFace("",0,0,2,76)
ShowMessage("My penis faintly throbs, letting semen flow out...")
ShowMessage("Despite not orgasming, the sweet movements of her vagina cause me to leak semen.")
ShowMessageFace("",0,0,2,77)
ShowMessage("The forced pleasure makes my head go white, triggering a true orgasm.")
RunCommonEvent(104)
PictureDisplay(5,"ev_jeid_h26",0,0,0,0,100,100,255,0)
RunCommonEvent(105)
ShowMessageFace("",0,0,2,78)
ShowMessage("My penis pulses in her as more semen gushes out.")
ShowMessage("My body goes numb due to the violent orgasm.")
ShowMessageFace("",0,0,2,79)
ShowMessage("It's like the small waves of my previous climax have been drowned by a massive wave...")
ShowMessage("Before my first ejaculation had finished, a second came pounding through.")
ShowMessageFace("",0,0,2,80)
ShowMessage("\\n<Luka>Nnngh...")
ShowMessageFace("",0,0,2,81)
ShowMessage("I continue trembling until my penis stopped pulsing.")
ShowMessage("Until the very last drop, Jaide's vagina sucked out every spurt.")
246(2)
ShowMessageFace("jeid_fc1",0,0,2,82)
ShowMessage("\\n<Jaide>...Semen collection finished.\nReleasing...")
PictureDisplay(5,"ev_jeid_h27",0,0,0,0,100,100,255,0)
ShowMessageFace("",0,0,2,83)
ShowMessage("Jaide finally releases me from her.")
ShowMessage("My overflowing semen faintly drips from her gel vagina.")
ShowMessageFace("",0,0,2,84)
ShowMessage("\\n<Luka>Nnngh...")
ShowMessageFace("",0,0,2,85)
ShowMessage("Despite being released, I'm too weak to move.")
ShowMessage("Completely exhausted, I lean against Jaide's body.")
221()
PictureClear(5)
246(2)
ShowMessageFace("",0,0,2,86)
ShowMessage("......")
242(2)
Wait(120)
241(bytes(0x04,0x08,0x6f,0x3a,0x0d,0x52,0x50,0x47,0x3a,0x3a,0x42,0x47,0x4d,0x08,0x3a,0x0a,0x40,0x6e,0x61,0x6d,0x65,0x49,0x22,0x0c,0x63,0x61,0x73,0x74,0x6c,0x65,0x36,0x06,0x3a,0x06,0x45,0x54,0x3a,0x0c,0x40,0x76,0x6f,0x6c,0x75,0x6d,0x65,0x69,0x69,0x3a,0x0b,0x40,0x70,0x69,0x74,0x63,0x68,0x69,0x69))
0()
