// EVENT 4007
Name "/アリス2"

241(bytes(0x04,0x08,0x6f,0x3a,0x0d,0x52,0x50,0x47,0x3a,0x3a,0x42,0x47,0x4d,0x08,0x3a,0x0a,0x40,0x6e,0x61,0x6d,0x65,0x49,0x22,0x09,0x65,0x72,0x6f,0x31,0x06,0x3a,0x06,0x45,0x54,0x3a,0x0c,0x40,0x76,0x6f,0x6c,0x75,0x6d,0x65,0x69,0x69,0x3a,0x0b,0x40,0x70,0x69,0x74,0x63,0x68,0x69,0x69))
PictureDisplay(5,"80_alice_st01",0,0,0,0,100,100,0,0)
PictureMove(5,null,0,0,0,0,100,100,255,0,30,true)
ShowMessageFace("alice_fc1",2,0,2,0)
ShowMessage("【アリス】")
ShowMessage("ところで、話は変わるが……余は腹が減った。")
ShowMessageFace("",0,0,2,1)
ShowMessage("【ルカ】")
ShowMessage("えっ……？ うわっ！！")
250(bytes(0x04,0x08,0x6f,0x3a,0x0c,0x52,0x50,0x47,0x3a,0x3a,0x53,0x45,0x08,0x3a,0x0a,0x40,0x6e,0x61,0x6d,0x65,0x49,0x22,0x16,0x6d,0x6f,0x6e,0x5f,0x65,0x72,0x6f,0x5f,0x73,0x69,0x6d,0x65,0x74,0x75,0x6b,0x65,0x31,0x06,0x3a,0x06,0x45,0x54,0x3a,0x0b,0x40,0x70,0x69,0x74,0x63,0x68,0x69,0x69,0x3a,0x0c,0x40,0x76,0x6f,0x6c,0x75,0x6d,0x65,0x69,0x69))
ShowMessageFace("",0,0,2,2)
ShowMessage("アリスは唐突に、僕の体を尻尾で巻き上げてきた。")
ShowMessage("筋肉の詰まった蛇体で締め付けられ、衣服が引き剥がされてしまう。")
ShowMessageFace("",0,0,2,3)
ShowMessage("【ルカ】")
ShowMessage("な、何をするんだ……！")
ShowMessageFace("alice_fc1",2,0,2,4)
ShowMessage("【アリス】")
ShowMessage("少し、腹ごしらえをさせてもらうだけだ。")
ShowMessage("それに、貴様の脆弱なココも鍛え直さねばならんしな……")
ShowMessageFace("",0,0,2,5)
ShowMessage("尻尾の先端が、剥き出しにされた僕のモノにちょんと触れた。")
ShowMessage("まるで軽く弄ぶように、先端が亀頭をちょんちょんとつついてくる――")
ShowMessageFace("",0,0,2,6)
ShowMessage("【ルカ】")
ShowMessage("あぅ……")
ShowMessageFace("",0,0,2,7)
ShowMessage("その刺激だけで、僕のモノはむくむくと大きくなってしまった。")
ShowMessageFace("alice_fc1",2,0,2,8)
ShowMessage("【アリス】")
ShowMessage("なんだ……これだけで大きくしたのか？")
ShowMessage("少しばかり、尾で弄んでやらねばならんな。")
250(bytes(0x04,0x08,0x6f,0x3a,0x0c,0x52,0x50,0x47,0x3a,0x3a,0x53,0x45,0x08,0x3a,0x0a,0x40,0x6e,0x61,0x6d,0x65,0x49,0x22,0x16,0x6d,0x6f,0x6e,0x5f,0x65,0x72,0x6f,0x5f,0x6d,0x61,0x6b,0x69,0x74,0x75,0x6b,0x69,0x31,0x06,0x3a,0x06,0x45,0x54,0x3a,0x0b,0x40,0x70,0x69,0x74,0x63,0x68,0x69,0x69,0x3a,0x0c,0x40,0x76,0x6f,0x6c,0x75,0x6d,0x65,0x69,0x69))
PictureDisplay(5,"ev_alice_h04_1",0,0,0,0,100,100,255,0)
ShowMessageFace("",0,0,2,9)
ShowMessage("しゅるり……と、肉棒の根元に尾が巻き付いてきた。")
ShowMessageFace("",0,0,2,10)
ShowMessage("【ルカ】")
ShowMessage("あぅ……")
ShowMessageFace("",0,0,2,11)
ShowMessage("尾の表面は、ざらざらしたうろこの感触。")
ShowMessage("それを通して、尾の内部に筋肉がみっちりと詰まっているのが分かる。")
ShowMessageFace("",0,0,2,12)
ShowMessage("そんなのが、しゅるしゅると肉棒を根元から巻き上げていくのだ。")
ShowMessage("肉棒の真ん中から、カリにまで――螺旋状に巻き付かれてしまった。")
ShowMessageFace("",0,0,2,13)
ShowMessage("【ルカ】")
ShowMessage("あぅぅぅ……！")
ShowMessageFace("alice_fc1",2,0,2,14)
ShowMessage("【アリス】")
ShowMessage("情けない声だな……")
ShowMessage("男のくせに、恥ずかしくはないのか……？")
245(bytes(0x04,0x08,0x6f,0x3a,0x0d,0x52,0x50,0x47,0x3a,0x3a,0x42,0x47,0x53,0x08,0x3a,0x0a,0x40,0x6e,0x61,0x6d,0x65,0x49,0x22,0x17,0x6d,0x6f,0x6e,0x5f,0x68,0x73,0x65,0x61,0x6e,0x31,0x37,0x5f,0x73,0x69,0x67,0x6f,0x6b,0x69,0x06,0x3a,0x06,0x45,0x54,0x3a,0x0c,0x40,0x76,0x6f,0x6c,0x75,0x6d,0x65,0x69,0x55,0x3a,0x0b,0x40,0x70,0x69,0x74,0x63,0x68,0x69,0x69))
ShowMessageFace("",0,0,2,15)
ShowMessage("にやにやと笑いながら、アリスは尾をくねらせ始めた。")
ShowMessage("その動きに従って、ペニスに巻き付いているとぐろが上下し始める。")
ShowMessageFace("",0,0,2,16)
ShowMessage("【ルカ】")
ShowMessage("あ……！ あぁぁぁぁぁ……！！")
ShowMessageFace("",0,0,2,17)
ShowMessage("じっくり与えられる快感に、僕は身をよじってしまう。")
ShowMessageFace("",0,0,2,18)
ShowMessage("激しく扱くのとは違い、じっくりじわじわと刺激を与えているような感じ。")
ShowMessage("その動作は、ねちっこく獲物を弄ぶ蛇そのものだった。")
ShowMessageFace("alice_fc1",2,0,2,19)
ShowMessage("【アリス】")
ShowMessage("ほらほら……がんばって、耐えるがいい。")
ShowMessage("あっけなく漏らしてしまっては、惨めだろう……？")
ShowMessageFace("",0,0,2,20)
ShowMessage("【ルカ】")
ShowMessage("あぅぅぅ……！ し、締めないでよぉ……")
ShowMessageFace("",0,0,2,21)
ShowMessage("締め付けが少しきつくなり、カリのくびれがぎゅっと圧迫される。")
ShowMessage("そのままスローモーに扱かれ、僕はかくかくと腰を揺さぶってしまった。")
ShowMessageFace("",0,0,2,22)
ShowMessage("快楽から逃げようとしているのか――")
ShowMessage("それとも、本能的に生殖の動作を行ってしまったのか――")
ShowMessageFace("",0,0,2,23)
ShowMessage("腰が動いてしまう理由は、自分でも分からなかった。")
ShowMessageFace("alice_fc1",2,0,2,24)
ShowMessage("【アリス】")
ShowMessage("くくく……余の尾に嫐られ、自ら腰を振り始めたか。")
ShowMessage("男の本能とはいえ、情けない姿だな……")
ShowMessageFace("",0,0,2,25)
ShowMessage("僕の痴態は、アリスを悦ばせてしまったようだ。")
ShowMessage("喘ぐ僕の顔を見下ろし、アリスは優越に満ちた笑みを見せる。")
ShowMessageFace("alice_fc1",2,0,2,26)
ShowMessage("【アリス】")
ShowMessage("先端もいじってやるぞ。ほらほら……心地良かろう。")
ShowMessageFace("",0,0,2,27)
ShowMessage("尻尾の先端が、とうとう亀頭にまで伸びてきた。")
ShowMessage("表面を撫で、つつき、裏筋をぐりぐり圧迫してくるのだ。")
ShowMessageFace("",0,0,2,28)
ShowMessage("裏筋をなぞられ、尿道口をつつかれ――")
ShowMessage("敏感な亀頭を弄ばれるような刺激に、僕は身悶えしてしまう。")
ShowMessageFace("",0,0,2,29)
ShowMessage("【ルカ】")
ShowMessage("あぅぅぅぅ……！ 先っちょ、やめてぇ……！")
ShowMessageFace("alice_fc1",2,0,2,30)
ShowMessage("【アリス】")
ShowMessage("くくっ……男性器を尾でいたぶられて、そんなに嬉しいか？")
ShowMessage("……では、そろそろフィニッシュといくか……")
ShowMessageFace("",0,0,2,31)
ShowMessage("ペニスを巻き取っていた尻尾の動きが、不意に変化した。")
ShowMessage("カリの辺りまでを巻き上げていた尻尾が、じっくりとうねり始めたのだ。")
ShowMessageFace("",0,0,2,32)
ShowMessage("【ルカ】")
ShowMessage("あひぃっ……！")
ShowMessageFace("",0,0,2,33)
ShowMessage("今までとは異なる刺激に、その意図をはっきりと感じ取ってしまった。")
ShowMessage("このまま、射精させてしまう気だ――")
ShowMessageFace("alice_fc1",2,0,2,34)
ShowMessage("【アリス】")
ShowMessage("さあ、惨めに果ててしまえ。")
ShowMessage("余の尻尾でいたぶられながら、子種をブチ撒けるがいい……")
ShowMessageFace("",0,0,2,35)
ShowMessage("【ルカ】")
ShowMessage("そ、そんな……あぁぁぁぁ……！")
ShowMessageFace("",0,0,2,36)
ShowMessage("カリのあたりにも尻尾は巻き付き、きゅうきゅう圧迫するように締められる")
ShowMessage("。")
ShowMessage("時にはうねうねと尾がうねり、カリを揉み解すような刺激が与えられた。")
ShowMessageFace("",0,0,2,37)
ShowMessage("そうしながらも、尾の先端は亀頭のあちこちをぐにぐに圧迫してくる。")
ShowMessage("あまりの快楽に、突き上げるような射精感が抑えきれなくなった――")
ShowMessageFace("",0,0,2,38)
ShowMessage("【ルカ】")
ShowMessage("で、出ちゃう……！ あ、あぁぁぁぁぁぁ――！！")
RunCommonEvent(104)
PictureDisplay(5,"ev_alice_h04_2",0,0,0,0,100,100,255,0)
RunCommonEvent(105)
ShowMessageFace("",0,0,2,39)
ShowMessage("びゅるびゅると溢れ出た精液が、アリスの尻尾を汚していく。")
ShowMessage("射精中も尻尾は肉棒を締め続け、放出が終わるまで快感を与え続けた。")
246(1)
ShowMessageFace("",0,0,2,40)
ShowMessage("【ルカ】")
ShowMessage("あぅぅぅ……")
ShowMessageFace("alice_fc1",2,0,2,41)
ShowMessage("【アリス】")
ShowMessage("ふふっ、まず一回目……")
ShowMessageFace("",0,0,2,42)
ShowMessage("【ルカ】")
ShowMessage("……え？ まさか、まだ……")
ShowMessageFace("",0,0,2,43)
ShowMessage("まず一回目という事は、これからもっと……？")
ShowMessageFace("alice_fc1",2,0,2,44)
ShowMessage("【アリス】")
ShowMessage("当然だ、貴様のペニスを鍛えると言っただろう。")
ShowMessage("もっともっと刺激して、空になるまで精液を搾り出してくれる")
ShowMessage("。")
ShowMessageFace("",0,0,2,45)
ShowMessage("【ルカ】")
ShowMessage("そ、そんなぁ……あぅぅぅぅっ！")
ShowMessageFace("",0,0,2,46)
ShowMessage("とうとう亀頭部にまで、尻尾がしゅるしゅると巻き付いてきた。")
ShowMessageFace("",0,0,2,47)
ShowMessage("ぎゅっと締められると、尾の中に詰まった弾力ある筋肉が感じ取れる。")
ShowMessage("肉棒の根元から先端まで、そんな未知の感触に包まれてしまったのだ。")
ShowMessageFace("alice_fc1",2,0,2,48)
ShowMessage("【アリス】")
ShowMessage("さあ、ここからは容赦せんぞ。")
ShowMessage("快楽にむせび泣き、よがり狂うがいい――")
ShowMessageFace("",0,0,2,49)
ShowMessage("【ルカ】")
ShowMessage("あ、あぁぁぁ……！")
245(bytes(0x04,0x08,0x6f,0x3a,0x0d,0x52,0x50,0x47,0x3a,0x3a,0x42,0x47,0x53,0x08,0x3a,0x0a,0x40,0x6e,0x61,0x6d,0x65,0x49,0x22,0x17,0x6d,0x6f,0x6e,0x5f,0x68,0x73,0x65,0x61,0x6e,0x31,0x37,0x5f,0x73,0x69,0x67,0x6f,0x6b,0x69,0x06,0x3a,0x06,0x45,0x54,0x3a,0x0c,0x40,0x76,0x6f,0x6c,0x75,0x6d,0x65,0x69,0x55,0x3a,0x0b,0x40,0x70,0x69,0x74,0x63,0x68,0x69,0x69))
ShowMessageFace("",0,0,2,50)
ShowMessage("ペニスにみっちり巻き付いている尻尾が、うにゅうにゅとうねり始めた。")
ShowMessage("まるで蛇腹の肉筒に包まれ、その内壁が段階的に収縮しているかのようだ。")
ShowMessageFace("",0,0,2,51)
ShowMessage("根元を締め付けたかと思ったら、その締まりが上に向かい、サオを上がり…")
ShowMessage("…")
ShowMessage("カリに引っ掛かったと思ったら、亀頭がにゅぐにゅぐ揉みしだかれる。")
ShowMessageFace("",0,0,2,52)
ShowMessage("そしてまた、根元から先端へと締め付けられてしまう。")
ShowMessage("その動作は、肉棒から精液を搾り出すかのようだった。")
ShowMessageFace("",0,0,2,53)
ShowMessage("【ルカ】")
ShowMessage("ふぁぁぁぁ……気持ちいいよぉ……")
ShowMessageFace("alice_fc1",2,0,2,54)
ShowMessage("【アリス】")
ShowMessage("ふふふ……もう涙目になってしまっているぞ。")
ShowMessage("いたぶり甲斐のある奴だな、貴様は……")
ShowMessageFace("",0,0,2,55)
ShowMessage("【ルカ】")
ShowMessage("あぁぁぁぁ……")
ShowMessageFace("",0,0,2,56)
ShowMessage("ぐにゅぐにゅとうねる尻尾に、肉棒をじっくり揉みしだかれ――")
ShowMessage("強制的に与えられる刺激に、みるみる追い詰められていった。")
ShowMessageFace("",0,0,2,57)
ShowMessage("じんわりした感覚が沸き上がり、下半身全体に広がっていく――")
ShowMessageFace("",0,0,2,58)
ShowMessage("【ルカ】")
ShowMessage("あぁぁ……また出ちゃうよぉ……")
ShowMessageFace("alice_fc1",2,0,2,59)
ShowMessage("【アリス】")
ShowMessage("ずいぶん早いな、情けない奴だ……")
ShowMessage("ほぉら、漏らしてしまうがいい……！")
ShowMessageFace("",0,0,2,60)
ShowMessage("尻尾のうねりが、徐々に激しくなってくる。")
ShowMessage("根元から先端までを、ぐにゅぐにゅと扱かれているかのようだ。")
ShowMessageFace("",0,0,2,61)
ShowMessage("独特の締め付けとうねりが生み出す感触は、手で扱くのを遙かに上回る快感")
ShowMessage("を生み出していた――")
ShowMessageFace("",0,0,2,62)
ShowMessage("【ルカ】")
ShowMessage("あ……だめぇ！ そんなにされたら……")
ShowMessage("あぁぁぁぁぁ……！！")
RunCommonEvent(104)
PictureDisplay(5,"ev_alice_h04_3",0,0,0,0,100,100,255,0)
RunCommonEvent(105)
ShowMessageFace("",0,0,2,63)
ShowMessage("アリスの尻尾に搾り出され、またも精液が迸ってしまった。")
ShowMessage("撒き散らされた白濁は、尻尾の表面から吸収されているようだ。")
ShowMessageFace("alice_fc1",2,0,2,64)
ShowMessage("【アリス】")
ShowMessage("くく、また果ててしまったか。")
ShowMessage("あっけなく子種を搾り出されて、みっともないな……")
ShowMessageFace("",0,0,2,65)
ShowMessage("勝ち誇ったような笑みを浮かべ、僕を見下ろすアリス。")
ShowMessage("その尻尾は肉棒にまとわりついたまま、またうねり始めていた。")
ShowMessageFace("",0,0,2,66)
ShowMessage("【ルカ】")
ShowMessage("あ、あぅぅ……もう無理……")
ShowMessageFace("",0,0,2,67)
ShowMessage("尻尾はうにゅうにゅと妖しくうねり、ペニスを搾り続ける。")
ShowMessage("容赦ない強制快感に、僕は身をわななかせて悶えてしまった。")
ShowMessageFace("alice_fc1",2,0,2,68)
ShowMessage("【アリス】")
ShowMessage("くくっ、なにが無理なのだ？")
ShowMessage("貴様のモノは、まだ固いではないか……")
ShowMessageFace("",0,0,2,69)
ShowMessage("尻尾に巻き取られ、強制刺激を与えられているペニスを眺めるアリス。")
ShowMessage("優越に満ちた視線で、嫐っている獲物を観察しているかのようだ。")
ShowMessageFace("alice_fc1",2,0,2,70)
ShowMessage("【アリス】")
ShowMessage("肉棒がひくひく動いて……まるで、もがいているようだな。")
ShowMessage("余の尾に締め上げられ、惨めにもがく貴様の分身――といった")
ShowMessage("ところか。")
ShowMessageFace("",0,0,2,71)
ShowMessage("【ルカ】")
ShowMessage("あ、あぁぁぁぁ――！")
ShowMessageFace("",0,0,2,72)
ShowMessage("尻尾の動きは、どんどん激しくなっていった。")
ShowMessage("ぐいぐい締め上げ、ぐにゅぐにゅとうねって揉みしだく。")
ShowMessageFace("",0,0,2,73)
ShowMessage("そんな動作は、容赦なく射精を促すためのものだった。")
ShowMessage("その締め付けが、うねりが、僕を絶頂へと追い詰めていく――")
ShowMessageFace("alice_fc1",2,0,2,74)
ShowMessage("【アリス】")
ShowMessage("……また漏らしてしまうのか、無様な奴め。")
ShowMessage("余に絶頂の顔を見られながら、果ててしまうがいい。")
ShowMessageFace("",0,0,2,75)
ShowMessage("【ルカ】")
ShowMessage("そ、そんなの……")
ShowMessageFace("",0,0,2,76)
ShowMessage("こんな間近で、絶頂の瞬間を見られてしまうという屈辱。")
ShowMessage("しかし、尻尾による上下の扱きが耐える事を許さなかった。")
ShowMessageFace("",0,0,2,77)
ShowMessage("【ルカ】")
ShowMessage("あ……またイっちゃう……")
ShowMessage("あぁぁぁぁぁ――！！")
RunCommonEvent(104)
PictureDisplay(5,"ev_alice_h04_4",0,0,0,0,100,100,255,0)
RunCommonEvent(105)
ShowMessageFace("alice_fc1",2,0,2,78)
ShowMessage("【アリス】")
ShowMessage("惨めにもがきながら、屈服の証を吹き出してしまうとは……")
ShowMessage("仕方がない男だな、貴様は。")
ShowMessageFace("",0,0,2,79)
ShowMessage("【ルカ】")
ShowMessage("あぁぁぁ……")
ShowMessageFace("",0,0,2,80)
ShowMessage("尻尾が肉棒をごしゅごしゅ扱きたて、残り汁まで搾り出される。")
ShowMessage("それが終われば、またしても容赦ない強制刺激が始まるのだ――")
ShowMessageFace("",0,0,2,81)
ShowMessage("【ルカ】")
ShowMessage("ひぃぃ……もうやめてぇ……！")
ShowMessageFace("alice_fc1",2,0,2,82)
ShowMessage("【アリス】")
ShowMessage("そう言いながら、本当は嬉しいのだろう……？")
ShowMessage("こんな風に、精液を何度も搾られたかったのだろう……？")
ShowMessageFace("",0,0,2,83)
ShowMessage("尻尾が亀頭を締め付け、ねちっこくうねった。")
ShowMessage("先端部を揉み洗いされているような刺激に、僕は悶絶してしまう。")
ShowMessageFace("alice_fc1",2,0,2,84)
ShowMessage("【アリス】")
ShowMessage("男性器に巻き付かれ、締め上げられ、弄ばれ……")
ShowMessage("男にとっては、屈辱のはずだろう？")
ShowMessageFace("alice_fc1",2,0,2,85)
ShowMessage("【アリス】")
ShowMessage("それなのに悦んでしまうとは、惨めだな……")
ShowMessage("恥ずかしいとは思わんのか……？")
ShowMessageFace("",0,0,2,86)
ShowMessage("ニヤニヤと笑いながら、アリスはねちっこく尻尾をうねらせる。")
ShowMessage("その責めは、まさに獲物をいたぶる蛇そのもの。")
ShowMessageFace("",0,0,2,87)
ShowMessage("このねちっこい責めに、僕は抵抗も我慢も許されなかった――")
ShowMessageFace("",0,0,2,88)
ShowMessage("【ルカ】")
ShowMessage("また出る……あぁぁぁぁぁ……！！")
RunCommonEvent(104)
RunCommonEvent(105)
ShowMessageFace("alice_fc1",2,0,2,89)
ShowMessage("【アリス】")
ShowMessage("ほぉら、まだまだ出せるだろう……？")
ShowMessage("最後の一滴まで、搾り出してやるからな……")
ShowMessageFace("",0,0,2,90)
ShowMessage("【ルカ】")
ShowMessage("あぁぁぁ……やめて、やめてぇ……")
RunCommonEvent(104)
RunCommonEvent(105)
221()
PictureClear(5)
246(2)
ShowMessageFace("",0,0,2,91)
ShowMessage("ひたすら尾で精を搾り出されながら、目の前が暗くなっていく。")
ShowMessage("体の力が抜け、意識もすっかり遠のいてしまった――")
ShowMessageFace("alice_fc1",2,0,2,92)
ShowMessage("【アリス】")
ShowMessage("ふ……もう一滴も出なくなったか。")
ShowMessage("おまけに失神してしまったらしいな。")
ShowMessageFace("alice_fc1",2,0,2,93)
ShowMessage("【アリス】")
ShowMessage("精を搾り尽くされ、意識を失うとは……情けない奴よ。")
ShowMessage("だが、貴様の精はとても美味かったぞ……くくく。")
ShowMessageFace("",0,0,2,94)
ShowMessage("【ルカ】")
ShowMessage("……………………")
ShowMessageFace("",0,0,2,95)
ShowMessage("結局、自分が精を啜りたかっただけじゃないか――")
ShowMessage("そんな事を考えながら、僕は完全に意識を失ってしまった。")
221()
PictureClear(5)
PictureClear(6)
246(2)
ShowMessageFace("",0,0,2,96)
ShowMessage("......")
242(2)
Wait(120)
241(bytes(0x04,0x08,0x6f,0x3a,0x0d,0x52,0x50,0x47,0x3a,0x3a,0x42,0x47,0x4d,0x08,0x3a,0x0a,0x40,0x6e,0x61,0x6d,0x65,0x49,0x22,0x0c,0x63,0x61,0x73,0x74,0x6c,0x65,0x36,0x06,0x3a,0x06,0x45,0x54,0x3a,0x0c,0x40,0x76,0x6f,0x6c,0x75,0x6d,0x65,0x69,0x69,0x3a,0x0b,0x40,0x70,0x69,0x74,0x63,0x68,0x69,0x69))
0()
