﻿// EVENT 0075
Name "Skill: Play 351-360"

ChangeVariable(11,11,0,2,1,5)
If(1,100,0,351,0)
 If(1,11,0,1,0)
  ShowMessageFace("scylla_s_fc1",0,0,2,1)
  ShowMessage("\\n<Cecile>Ufufu...")
  355("interrupt_skill(3296)")
  EndEventProcessing()
  0()
 EndIf()
 If(1,11,0,2,0)
  ShowMessageFace("scylla_s_fc1",2,0,2,2)
  ShowMessage("\\n<Cecile>Oh I'm so busy, busy...")
  ShowMessageFace("",0,0,2,3)
  ShowMessage("Cecile is cleaning the surroundings...")
  EndEventProcessing()
  0()
 EndIf()
 If(1,11,0,3,0)
  ShowMessageFace("scylla_s_fc1",0,0,2,4)
  ShowMessage("\\n<Cecile>Now, let's do our best! ♪")
  355("interrupt_skill(3300)")
  EndEventProcessing()
  0()
 EndIf()
 If(1,11,0,4,0)
  ShowMessageFace("scylla_s_fc1",0,0,2,5)
  ShowMessage("\\n<Cecile>Please have this meal...")
  ShowMessageFace("",0,0,2,6)
  ShowMessage("Cecile presents a gift!")
  250(bytes(0x04,0x08,0x6f,0x3a,0x0c,0x52,0x50,0x47,0x3a,0x3a,0x53,0x45,0x08,0x3a,0x0a,0x40,0x6e,0x61,0x6d,0x65,0x49,0x22,0x0a,0x49,0x74,0x65,0x6d,0x31,0x06,0x3a,0x06,0x45,0x54,0x3a,0x0b,0x40,0x70,0x69,0x74,0x63,0x68,0x69,0x69,0x3a,0x0c,0x40,0x76,0x6f,0x6c,0x75,0x6d,0x65,0x69,0x55))
  ChangeInventory_Item(373,0,0,1)
  ShowMessageFace("",0,0,2,7)
  ShowMessage("You obtain a \\ii[373]!")
  EndEventProcessing()
  0()
 EndIf()
 If(1,11,0,5,0)
  ShowMessageFace("scylla_s_fc1",0,0,2,8)
  ShowMessage("\\n<Cecile>Pardon the tentacles...")
  355("interrupt_skill(2789)")
  EndEventProcessing()
  0()
 EndIf()
 0()
EndIf()
If(1,100,0,352,0)
 If(1,11,0,1,0)
  ShowMessageFace("vouivre_fc1",2,0,2,9)
  ShowMessage("\\n<Vivi>Calm down, my dark half...!")
  ShowMessageFace("",0,0,2,10)
  ShowMessage("Vivi is playing by herself...")
  EndEventProcessing()
  0()
 EndIf()
 If(1,11,0,2,0)
  ShowMessageFace("vouivre_fc1",0,0,2,11)
  ShowMessage("\\n<Vivi>Now, count your sins!")
  ShowMessageFace("",0,0,2,12)
  ShowMessage("Vivi is playing hero...")
  EndEventProcessing()
  0()
 EndIf()
 If(1,11,0,3,0)
  ShowMessageFace("vouivre_fc1",0,0,2,13)
  ShowMessage("\\n<Vivi>I'm juggling!")
  ShowMessageFace("",0,0,2,14)
  ShowMessage("Vivi is juggling!\n...But nobody is watching her.")
  EndEventProcessing()
  0()
 EndIf()
 If(1,11,0,4,0)
  ShowMessageFace("vouivre_fc1",0,0,2,15)
  ShowMessage("\\n<Vivi>I'll give you this. ♪")
  ShowMessageFace("",0,0,2,16)
  ShowMessage("Vivi presents a gift!")
  250(bytes(0x04,0x08,0x6f,0x3a,0x0c,0x52,0x50,0x47,0x3a,0x3a,0x53,0x45,0x08,0x3a,0x0a,0x40,0x6e,0x61,0x6d,0x65,0x49,0x22,0x0a,0x49,0x74,0x65,0x6d,0x31,0x06,0x3a,0x06,0x45,0x54,0x3a,0x0b,0x40,0x70,0x69,0x74,0x63,0x68,0x69,0x69,0x3a,0x0c,0x40,0x76,0x6f,0x6c,0x75,0x6d,0x65,0x69,0x55))
  ChangeInventory_Item(450,0,0,1)
  ShowMessageFace("",0,0,2,17)
  ShowMessage("You obtain a \\ii[450]!")
  EndEventProcessing()
  0()
 EndIf()
 If(1,11,0,5,0)
  ShowMessageFace("vouivre_fc1",0,0,2,18)
  ShowMessage("\\n<Vivi>Ahaha!")
  355("interrupt_skill(3295)")
  EndEventProcessing()
  0()
 EndIf()
 0()
EndIf()
If(1,100,0,353,0)
 If(1,11,0,1,0)
  ShowMessageFace("icemaze_fc1",0,0,2,19)
  ShowMessage("\\n<Irma>............")
  ShowMessageFace("",0,0,2,20)
  ShowMessage("Irma makes a sidelong glance...\nHowever, it appeared to be more like a glare!")
  EndEventProcessing()
  0()
 EndIf()
 If(1,11,0,2,0)
  ShowMessageFace("icemaze_fc1",0,0,2,21)
  ShowMessage("\\n<Irma>I wonder if an ice age will truly arrive soon...")
  ShowMessageFace("",0,0,2,22)
  ShowMessage("Irma is complaining to herself...")
  EndEventProcessing()
  0()
 EndIf()
 If(1,11,0,3,0)
  ShowMessageFace("icemaze_fc1",0,0,2,23)
  ShowMessage("\\n<Irma>Do...do your best...")
  ShowMessageFace("",0,0,2,24)
  ShowMessage("Irma is cheering for everyone!\n...But nobody heard her.")
  EndEventProcessing()
  0()
 EndIf()
 If(1,11,0,4,0)
  ShowMessageFace("icemaze_fc1",0,0,2,25)
  ShowMessage("\\n<Irma>I'll give you this.")
  ShowMessageFace("",0,0,2,26)
  ShowMessage("Irma presents a gift!")
  250(bytes(0x04,0x08,0x6f,0x3a,0x0c,0x52,0x50,0x47,0x3a,0x3a,0x53,0x45,0x08,0x3a,0x0a,0x40,0x6e,0x61,0x6d,0x65,0x49,0x22,0x0a,0x49,0x74,0x65,0x6d,0x31,0x06,0x3a,0x06,0x45,0x54,0x3a,0x0b,0x40,0x70,0x69,0x74,0x63,0x68,0x69,0x69,0x3a,0x0c,0x40,0x76,0x6f,0x6c,0x75,0x6d,0x65,0x69,0x55))
  ChangeInventory_Item(424,0,0,1)
  ShowMessageFace("",0,0,2,27)
  ShowMessage("You obtain some \\ii[424]!")
  EndEventProcessing()
  0()
 EndIf()
 If(1,11,0,5,0)
  ShowMessageFace("icemaze_fc1",2,0,2,28)
  ShowMessage("\\n<Irma>Ha...hachoo!")
  355("interrupt_skill(3075)")
  EndEventProcessing()
  0()
 EndIf()
 0()
EndIf()
If(1,100,0,354,0)
 If(1,11,0,1,0)
  ShowMessageFace("shirokuma_fc1",0,0,2,29)
  ShowMessage("\\n<Knoot>Cold...")
  ShowMessageFace("",0,0,2,30)
  ShowMessage("Knoot is complaining about the cold...")
  EndEventProcessing()
  0()
 EndIf()
 If(1,11,0,2,0)
  ShowMessageFace("shirokuma_fc1",0,0,2,31)
  ShowMessage("\\n<Knoot>Warm...")
  ShowMessageFace("",0,0,2,32)
  ShowMessage("Knoot is warming herself with a hot-water bottle...")
  EndEventProcessing()
  0()
 EndIf()
 If(1,11,0,3,0)
  ShowMessageFace("shirokuma_fc1",0,0,2,33)
  ShowMessage("\\n<Knoot>Good night...")
  313(0,354,0,11)
  ShowMessageFace("",0,0,2,34)
  ShowMessage("Knoot fell asleep...")
  EndEventProcessing()
  0()
 EndIf()
 If(1,11,0,4,0)
  ShowMessageFace("shirokuma_fc1",0,0,2,35)
  ShowMessage("\\n<Knoot>Delicious...")
  ShowMessageFace("",0,0,2,36)
  ShowMessage("Knoot presents a gift!")
  250(bytes(0x04,0x08,0x6f,0x3a,0x0c,0x52,0x50,0x47,0x3a,0x3a,0x53,0x45,0x08,0x3a,0x0a,0x40,0x6e,0x61,0x6d,0x65,0x49,0x22,0x0a,0x49,0x74,0x65,0x6d,0x31,0x06,0x3a,0x06,0x45,0x54,0x3a,0x0b,0x40,0x70,0x69,0x74,0x63,0x68,0x69,0x69,0x3a,0x0c,0x40,0x76,0x6f,0x6c,0x75,0x6d,0x65,0x69,0x55))
  ChangeInventory_Item(390,0,0,1)
  ShowMessageFace("",0,0,2,37)
  ShowMessage("You obtain some \\ii[390]!")
  EndEventProcessing()
  0()
 EndIf()
 If(1,11,0,5,0)
  ShowMessageFace("shirokuma_fc1",0,0,2,38)
  ShowMessage("\\n<Knoot>Fuuu...")
  355("interrupt_skill(3075)")
  EndEventProcessing()
  0()
 EndIf()
 0()
EndIf()
If(1,100,0,355,0)
 If(1,11,0,1,0)
  ShowMessageFace("angels_fc1",0,0,2,39)
  ShowMessage("\\n<Angels>*stare*...")
  ShowMessageFace("",0,0,2,40)
  ShowMessage("The Angels make sidelong glances...\nHowever, they appeared to be more like glares!")
  EndEventProcessing()
  0()
 EndIf()
 If(1,11,0,2,0)
  ShowMessageFace("angels_fc1",0,0,2,41)
  ShowMessage("\\n<Angels>I want to sleep soon...")
  ShowMessageFace("",0,0,2,42)
  ShowMessage("The Angels are staring blankly...")
  EndEventProcessing()
  0()
 EndIf()
 If(1,11,0,3,0)
  ShowMessageFace("angels_fc1",0,0,2,43)
  ShowMessage("\\n<Angels>This is a message to Ilias...")
  ShowMessageFace("",0,0,2,44)
  ShowMessage("The Angels are doodling on the ground...")
  EndEventProcessing()
  0()
 EndIf()
 If(1,11,0,4,0)
  ShowMessageFace("angels_fc1",0,0,2,45)
  ShowMessage("\\n<Angels>We grant you this blessing...")
  ShowMessageFace("",0,0,2,46)
  ShowMessage("The Angels present a gift!")
  250(bytes(0x04,0x08,0x6f,0x3a,0x0c,0x52,0x50,0x47,0x3a,0x3a,0x53,0x45,0x08,0x3a,0x0a,0x40,0x6e,0x61,0x6d,0x65,0x49,0x22,0x0a,0x49,0x74,0x65,0x6d,0x31,0x06,0x3a,0x06,0x45,0x54,0x3a,0x0b,0x40,0x70,0x69,0x74,0x63,0x68,0x69,0x69,0x3a,0x0c,0x40,0x76,0x6f,0x6c,0x75,0x6d,0x65,0x69,0x55))
  ChangeInventory_Item(301,0,0,1)
  ShowMessageFace("",0,0,2,47)
  ShowMessage("You obtain an \\ii[301]!")
  EndEventProcessing()
  0()
 EndIf()
 If(1,11,0,5,0)
  ShowMessageFace("angels_fc1",0,0,2,48)
  ShowMessage("\\n<Angels>Haaa!!")
  355("interrupt_skill(3294)")
  EndEventProcessing()
  0()
 EndIf()
 0()
EndIf()
If(1,100,0,356,0)
 If(1,11,0,1,0)
  ShowMessageFace("trinity_fc1",3,0,2,49)
  ShowMessage("\\n<Trinity>Let us replenish our holy power...")
  ShowMessageFace("",0,0,2,50)
  ShowMessage("The Trinity are eating some food they stole...")
  EndEventProcessing()
  0()
 EndIf()
 If(1,11,0,2,0)
  ShowMessageFace("trinity_fc1",3,0,2,51)
  ShowMessage("\\n<Trinity>Let us depart to a world of pleasure...")
  355("interrupt_skill(1658)")
  EndEventProcessing()
  0()
 EndIf()
 If(1,11,0,3,0)
  ShowMessageFace("trinity_fc1",3,0,2,52)
  ShowMessage("\\n<Trinity>The light of the Goddess...")
  355("interrupt_skill(1636)")
  EndEventProcessing()
  0()
 EndIf()
 If(1,11,0,4,0)
  ShowMessageFace("trinity_fc1",3,0,2,53)
  ShowMessage("\\n<Trinity>We shall give you this...")
  ShowMessageFace("",0,0,2,54)
  ShowMessage("The Trinity presents a gift!")
  250(bytes(0x04,0x08,0x6f,0x3a,0x0c,0x52,0x50,0x47,0x3a,0x3a,0x53,0x45,0x08,0x3a,0x0a,0x40,0x6e,0x61,0x6d,0x65,0x49,0x22,0x0a,0x49,0x74,0x65,0x6d,0x31,0x06,0x3a,0x06,0x45,0x54,0x3a,0x0b,0x40,0x70,0x69,0x74,0x63,0x68,0x69,0x69,0x3a,0x0c,0x40,0x76,0x6f,0x6c,0x75,0x6d,0x65,0x69,0x55))
  ChangeInventory_Item(423,0,0,1)
  ShowMessageFace("",0,0,2,55)
  ShowMessage("You obtain some \\ii[423]!")
  EndEventProcessing()
  0()
 EndIf()
 If(1,11,0,5,0)
  ShowMessageFace("trinity_fc1",3,0,2,56)
  ShowMessage("\\n<Trinity>Ilias, grant us your protection...")
  355("interrupt_skill(3302)")
  EndEventProcessing()
  0()
 EndIf()
 0()
EndIf()
If(1,100,0,357,0)
 If(1,11,0,1,0)
  ShowMessageFace("uranus_fc1",0,0,2,57)
  ShowMessage("\\n<Uranus>Is there anything to feast upon...?")
  ShowMessageFace("",0,0,2,58)
  ShowMessage("Uranus is eating some food she stole...")
  EndEventProcessing()
  0()
 EndIf()
 If(1,11,0,2,0)
  ShowMessageFace("uranus_fc1",1,0,2,59)
  ShowMessage("\\n<Uranus>It is also important to enjoy ourselves...")
  ShowMessageFace("",0,0,2,60)
  ShowMessage("Uranus is dancing and singing happily...")
  EndEventProcessing()
  0()
 EndIf()
 If(1,11,0,3,0)
  ShowMessageFace("uranus_fc1",0,0,2,61)
  ShowMessage("\\n<Uranus>Let me sleep a little...")
  313(0,357,0,11)
  ShowMessageFace("",0,0,2,62)
  ShowMessage("Uranus fell asleep...")
  EndEventProcessing()
  0()
 EndIf()
 If(1,11,0,4,0)
  ShowMessageFace("uranus_fc1",1,0,2,63)
  ShowMessage("\\n<Uranus>Would you like to eat this...?")
  ShowMessageFace("",0,0,2,64)
  ShowMessage("Uranus presents a gift!")
  250(bytes(0x04,0x08,0x6f,0x3a,0x0c,0x52,0x50,0x47,0x3a,0x3a,0x53,0x45,0x08,0x3a,0x0a,0x40,0x6e,0x61,0x6d,0x65,0x49,0x22,0x0a,0x49,0x74,0x65,0x6d,0x31,0x06,0x3a,0x06,0x45,0x54,0x3a,0x0b,0x40,0x70,0x69,0x74,0x63,0x68,0x69,0x69,0x3a,0x0c,0x40,0x76,0x6f,0x6c,0x75,0x6d,0x65,0x69,0x55))
  ChangeInventory_Item(312,0,0,1)
  ShowMessageFace("",0,0,2,65)
  ShowMessage("You obtain a \\ii[312]!")
  EndEventProcessing()
  0()
 EndIf()
 If(1,11,0,5,0)
  ShowMessageFace("uranus_fc1",0,0,2,66)
  ShowMessage("\\n<Uranus>Let's exercise a little...")
  355("interrupt_skill(2695)")
  EndEventProcessing()
  0()
 EndIf()
 0()
EndIf()
If(1,100,0,358,0)
 If(1,11,0,1,0)
  ShowMessageFace("erisiel_fc1",0,0,2,67)
  ShowMessage("\\n<Eliciel>A sweet fragrance...")
  355("interrupt_skill(2921)")
  EndEventProcessing()
  0()
 EndIf()
 If(1,11,0,2,0)
  ShowMessageFace("erisiel_fc1",1,0,2,68)
  ShowMessage("\\n<Eliciel>Ufufu...")
  ShowMessageFace("",0,0,2,69)
  ShowMessage("Eliciel flashes a sweet smile!\n...But nothing happened.")
  EndEventProcessing()
  0()
 EndIf()
 If(1,11,0,3,0)
  ShowMessageFace("erisiel_fc1",0,0,2,70)
  ShowMessage("\\n<Eliciel>I want to transform into a flower of paradise...")
  ShowMessageFace("",0,0,2,71)
  ShowMessage("Eliciel hid somewhere!\n...But nobody tried to find her.")
  EndEventProcessing()
  0()
 EndIf()
 If(1,11,0,4,0)
  ShowMessageFace("erisiel_fc1",0,0,2,72)
  ShowMessage("\\n<Eliciel>Please eat this...")
  ShowMessageFace("",0,0,2,73)
  ShowMessage("Eliciel presents a gift!")
  250(bytes(0x04,0x08,0x6f,0x3a,0x0c,0x52,0x50,0x47,0x3a,0x3a,0x53,0x45,0x08,0x3a,0x0a,0x40,0x6e,0x61,0x6d,0x65,0x49,0x22,0x0a,0x49,0x74,0x65,0x6d,0x31,0x06,0x3a,0x06,0x45,0x54,0x3a,0x0b,0x40,0x70,0x69,0x74,0x63,0x68,0x69,0x69,0x3a,0x0c,0x40,0x76,0x6f,0x6c,0x75,0x6d,0x65,0x69,0x55))
  ChangeInventory_Item(303,0,0,1)
  ShowMessageFace("",0,0,2,74)
  ShowMessage("You obtain a \\ii[303]!")
  EndEventProcessing()
  0()
 EndIf()
 If(1,11,0,5,0)
  ShowMessageFace("erisiel_fc1",0,0,2,75)
  ShowMessage("\\n<Eliciel>I'll clear them out...")
  355("interrupt_skill(2904)")
  EndEventProcessing()
  0()
 EndIf()
 0()
EndIf()
If(1,100,0,359,0)
 If(1,11,0,1,0)
  ShowMessageFace("cupid_fc1",0,0,2,76)
  ShowMessage("\\n<Cupi>Ufufu...♪")
  355("interrupt_skill(3296)")
  EndEventProcessing()
  0()
 EndIf()
 If(1,11,0,2,0)
  ShowMessageFace("cupid_fc1",0,0,2,77)
  ShowMessage("\\n<Cupi>Let's pray...♪")
  355("interrupt_skill(3302)")
  EndEventProcessing()
  0()
 EndIf()
 If(1,11,0,3,0)
  ShowMessageFace("cupid_fc1",0,0,2,78)
  ShowMessage("\\n<Cupi>I want to take a naaap. ♪")
  313(0,359,0,11)
  ShowMessageFace("",0,0,2,79)
  ShowMessage("Cupi fell asleep...")
  EndEventProcessing()
  0()
 EndIf()
 If(1,11,0,4,0)
  ShowMessageFace("cupid_fc1",0,0,2,80)
  ShowMessage("\\n<Cupi>This kid is my friend! ♪")
  ShowMessageFace("",0,0,2,81)
  ShowMessage("Cupi presents a gift!")
  250(bytes(0x04,0x08,0x6f,0x3a,0x0c,0x52,0x50,0x47,0x3a,0x3a,0x53,0x45,0x08,0x3a,0x0a,0x40,0x6e,0x61,0x6d,0x65,0x49,0x22,0x0a,0x49,0x74,0x65,0x6d,0x31,0x06,0x3a,0x06,0x45,0x54,0x3a,0x0b,0x40,0x70,0x69,0x74,0x63,0x68,0x69,0x69,0x3a,0x0c,0x40,0x76,0x6f,0x6c,0x75,0x6d,0x65,0x69,0x55))
  ChangeInventory_Item(450,0,0,1)
  ShowMessageFace("",0,0,2,82)
  ShowMessage("You obtain a \\ii[450]!")
  EndEventProcessing()
  0()
 EndIf()
 If(1,11,0,5,0)
  ShowMessageFace("cupid_fc1",0,0,2,83)
  ShowMessage("\\n<Cupi>Ahaha...")
  355("interrupt_skill(3295)")
  EndEventProcessing()
  0()
 EndIf()
 0()
EndIf()
If(1,100,0,360,0)
 If(1,11,0,1,0)
  ShowMessageFace("valkyrie_fc1",0,0,2,84)
  ShowMessage("\\n<Victoria>Haa...!")
  355("interrupt_skill(3292)")
  EndEventProcessing()
  0()
 EndIf()
 If(1,11,0,2,0)
  ShowMessageFace("valkyrie_fc1",0,0,2,85)
  ShowMessage("\\n<Victoria>I do not neglect my training...")
  ShowMessageFace("",0,0,2,86)
  ShowMessage("Victoria is training in secret...")
  EndEventProcessing()
  0()
 EndIf()
 If(1,11,0,3,0)
  ShowMessageFace("valkyrie_fc1",0,0,2,87)
  ShowMessage("\\n<Victoria>*stare*...")
  ShowMessageFace("",0,0,2,88)
  ShowMessage("Victoria makes a sidelong glance...\nHowever, it appeared to be more like a glare!")
  EndEventProcessing()
  0()
 EndIf()
 If(1,11,0,4,0)
  ShowMessageFace("valkyrie_fc1",0,0,2,89)
  ShowMessage("\\n<Victoria>I will give you this...")
  ShowMessageFace("",0,0,2,90)
  ShowMessage("Victoria presents a gift!")
  250(bytes(0x04,0x08,0x6f,0x3a,0x0c,0x52,0x50,0x47,0x3a,0x3a,0x53,0x45,0x08,0x3a,0x0a,0x40,0x6e,0x61,0x6d,0x65,0x49,0x22,0x0a,0x49,0x74,0x65,0x6d,0x31,0x06,0x3a,0x06,0x45,0x54,0x3a,0x0b,0x40,0x70,0x69,0x74,0x63,0x68,0x69,0x69,0x3a,0x0c,0x40,0x76,0x6f,0x6c,0x75,0x6d,0x65,0x69,0x55))
  ChangeInventory_Item(363,0,0,1)
  ShowMessageFace("",0,0,2,91)
  ShowMessage("You obtain some \\ii[363]!")
  EndEventProcessing()
  0()
 EndIf()
 If(1,11,0,5,0)
  ShowMessageFace("valkyrie_fc1",0,0,2,92)
  ShowMessage("\\n<Victoria>Let's go...!")
  355("interrupt_skill(3294)")
  EndEventProcessing()
  0()
 EndIf()
 0()
EndIf()
0()
