// EVENT 0057
Name "Skill: Play 171-180"

ChangeVariable(11,11,0,2,1,5)
If(1,100,0,171,0)
 If(1,11,0,1,0)
  ShowMessageFace("lizardboss_fc1",0,0,2,1)
  ShowMessage("\\n<Miranda>Well, how far has the enemy come?")
  ShowMessageFace("",0,0,2,2)
  ShowMessage("Miranda is sizing up the enemy.")
  EndEventProcessing()
  0()
 EndIf()
 If(1,11,0,2,0)
  ShowMessageFace("lizardboss_fc1",0,0,2,3)
  ShowMessage("\\n<Miranda>Stay strong, I am watching!")
  355("interrupt_skill(3300)")
  EndEventProcessing()
  0()
 EndIf()
 If(1,11,0,3,0)
  ShowMessageFace("lizardboss_fc1",0,0,2,4)
  ShowMessage("\\n<Miranda>Now I'm filled with fighting spirit, let's gooo!")
  355("interrupt_skill(3294)")
  EndEventProcessing()
  0()
 EndIf()
 If(1,11,0,4,0)
  ShowMessageFace("lizardboss_fc1",0,0,2,5)
  ShowMessage("\\n<Miranda>I am a bandit, I take what I want.")
  ShowMessageFace("",0,0,2,6)
  ShowMessage("Miranda is eating some food she stole.")
  EndEventProcessing()
  0()
 EndIf()
 If(1,11,0,5,0)
  ShowMessageFace("lizardboss_fc1",0,0,2,7)
  ShowMessage("\\n<Miranda>I will share today's spoils with everyone.")
  ShowMessageFace("",0,0,2,8)
  ShowMessage("Miranda presents a gift!")
  250(bytes(0x04,0x08,0x6f,0x3a,0x0c,0x52,0x50,0x47,0x3a,0x3a,0x53,0x45,0x08,0x3a,0x0a,0x40,0x6e,0x61,0x6d,0x65,0x49,0x22,0x0a,0x49,0x74,0x65,0x6d,0x31,0x06,0x3a,0x06,0x45,0x54,0x3a,0x0b,0x40,0x70,0x69,0x74,0x63,0x68,0x69,0x69,0x3a,0x0c,0x40,0x76,0x6f,0x6c,0x75,0x6d,0x65,0x69,0x55))
  ChangeInventory_Item(357,0,0,1)
  ShowMessageFace("",0,0,2,9)
  ShowMessage("You obtain a \\ii[357]!")
  EndEventProcessing()
  0()
 EndIf()
 0()
EndIf()
If(1,100,0,172,0)
 If(1,11,0,1,0)
  ShowMessageFace("sinkiro_fc1",0,0,2,10)
  ShowMessage("\\n<Mirage>My throat is dryyy.")
  ShowMessageFace("",0,0,2,11)
  ShowMessage("Mirage is drinking orange juice.")
  EndEventProcessing()
  0()
 EndIf()
 If(1,11,0,2,0)
  ShowMessageFace("sinkiro_fc1",0,0,2,12)
  ShowMessage("\\n<Mirage>*Snooze* *Snooze*")
  313(0,172,0,11)
  ShowMessageFace("",0,0,2,13)
  ShowMessage("Mirage is sleeping.")
  EndEventProcessing()
  0()
 EndIf()
 If(1,11,0,3,0)
  ShowMessageFace("sinkiro_fc1",0,0,2,14)
  ShowMessage("\\n<Mirage>Let's play merrilyyy. ♪")
  ShowMessageFace("",0,0,2,15)
  ShowMessage("Mirage cheerfully sings and dances.")
  EndEventProcessing()
  0()
 EndIf()
 If(1,11,0,4,0)
  ShowMessageFace("sinkiro_fc1",0,0,2,16)
  ShowMessage("\\n<Mirage>Something grew on a tree. ♪")
  250(bytes(0x04,0x08,0x6f,0x3a,0x0c,0x52,0x50,0x47,0x3a,0x3a,0x53,0x45,0x08,0x3a,0x0a,0x40,0x6e,0x61,0x6d,0x65,0x49,0x22,0x0a,0x49,0x74,0x65,0x6d,0x31,0x06,0x3a,0x06,0x45,0x54,0x3a,0x0b,0x40,0x70,0x69,0x74,0x63,0x68,0x69,0x69,0x3a,0x0c,0x40,0x76,0x6f,0x6c,0x75,0x6d,0x65,0x69,0x55))
  ChangeInventory_Item(305,0,0,1)
  ShowMessageFace("",0,0,2,17)
  ShowMessage("Mirage picked a banana.")
  ShowMessage("You obtain a \\ii[305]!")
  EndEventProcessing()
  0()
 EndIf()
 If(1,11,0,5,0)
  ShowMessageFace("sinkiro_fc1",0,0,2,18)
  ShowMessage("\\n<Mirage>*Munch* *Munch*")
  ShowMessageFace("",0,0,2,19)
  ShowMessage("Mirage is eating some food she stole.")
  EndEventProcessing()
  0()
 EndIf()
 0()
EndIf()
If(1,100,0,173,0)
 If(1,11,0,1,0)
  ShowMessageFace("arizigoku_fc1",0,0,2,20)
  ShowMessage("\\n<Helen>Hmhmhmm. ♪")
  ShowMessageFace("",0,0,2,21)
  ShowMessage("Helen is drawing in the sand with her fingers.")
  EndEventProcessing()
  0()
 EndIf()
 If(1,11,0,2,0)
  ShowMessageFace("arizigoku_fc1",2,0,2,22)
  ShowMessage("\\n<Helen>Oh, crap! Ahhh!!")
  313(0,173,0,28)
  ShowMessageFace("",0,0,2,23)
  ShowMessage("Helen was swallowed by her own quicksand...")
  ShowMessage("Helen has been bound!")
  EndEventProcessing()
  0()
 EndIf()
 If(1,11,0,3,0)
  ShowMessageFace("arizigoku_fc1",0,0,2,24)
  ShowMessage("\\n<Helen>Huh? This insect... I'm not going to prey on it.")
  250(bytes(0x04,0x08,0x6f,0x3a,0x0c,0x52,0x50,0x47,0x3a,0x3a,0x53,0x45,0x08,0x3a,0x0a,0x40,0x6e,0x61,0x6d,0x65,0x49,0x22,0x0a,0x49,0x74,0x65,0x6d,0x31,0x06,0x3a,0x06,0x45,0x54,0x3a,0x0b,0x40,0x70,0x69,0x74,0x63,0x68,0x69,0x69,0x3a,0x0c,0x40,0x76,0x6f,0x6c,0x75,0x6d,0x65,0x69,0x55))
  ChangeInventory_Item(448,0,0,1)
  ShowMessageFace("",0,0,2,25)
  ShowMessage("Helen caught a beetle!")
  ShowMessage("You obtain a \\ii[448]!")
  EndEventProcessing()
  0()
 EndIf()
 If(1,11,0,4,0)
  ShowMessageFace("arizigoku_fc1",0,0,2,26)
  ShowMessage("\\n<Helen>I'll cover you... Ya!")
  355("interrupt_skill(3308)")
  EndEventProcessing()
  0()
 EndIf()
 If(1,11,0,5,0)
  ShowMessageFace("arizigoku_fc1",2,0,2,27)
  ShowMessage("\\n<Helen>Stop it already! Let's all get along. You're welcome to my quicksand!")
  ShowMessageFace("",0,0,2,28)
  ShowMessage("Helen tried to stop the fight!")
  ShowMessage("...However, nobody was listening.")
  EndEventProcessing()
  0()
 EndIf()
 0()
EndIf()
If(1,100,0,174,0)
 If(1,11,0,1,0)
  ShowMessageFace("sandw_fc1",0,0,2,29)
  ShowMessage("\\n<Dahlia>Boo...")
  ShowMessageFace("",0,0,2,30)
  ShowMessage("Dahlia is in a daze.")
  EndEventProcessing()
  0()
 EndIf()
 If(1,11,0,2,0)
  ShowMessageFace("sandw_fc1",0,0,2,31)
  ShowMessage("\\n<Dahlia>Roll, roll...")
  ShowMessageFace("",0,0,2,32)
  ShowMessage("Dahlia began to roll around!")
  355("interrupt_skill(2993)")
  EndEventProcessing()
  0()
 EndIf()
 If(1,11,0,3,0)
  ShowMessageFace("sandw_fc1",2,0,2,33)
  ShowMessage("\\n<Dahlia>Ahh... Ah-choo!")
  ShowMessageFace("",0,0,2,34)
  ShowMessage("Dahlia sneezed!")
  355("interrupt_skill(3038)")
  EndEventProcessing()
  0()
 EndIf()
 If(1,11,0,4,0)
  ShowMessageFace("sandw_fc1",0,0,2,35)
  ShowMessage("\\n<Dahlia>Good night...")
  313(0,174,0,11)
  ShowMessageFace("",0,0,2,36)
  ShowMessage("Dahlia fell asleep...")
  EndEventProcessing()
  0()
 EndIf()
 If(1,11,0,5,0)
  ShowMessageFace("sandw_fc1",0,0,2,37)
  ShowMessage("\\n<Dahlia>*Wiggle* *Wiggle*")
  ShowMessageFace("",0,0,2,38)
  ShowMessage("Dahlia danced a great dance!")
  ShowMessage("...But nothing happened.")
  EndEventProcessing()
  0()
 EndIf()
 0()
EndIf()
If(1,100,0,175,0)
 If(1,11,0,1,0)
  ShowMessageFace("d_scylla_fc1",0,0,2,39)
  ShowMessage("\\n<Deiji>Ahh, it's my free time...")
  ShowMessageFace("",0,0,2,40)
  ShowMessage("Deiji is building sand mountains.")
  EndEventProcessing()
  0()
 EndIf()
 If(1,11,0,2,0)
  ShowMessageFace("d_scylla_fc1",0,0,2,41)
  ShowMessage("\\n<Deiji>Lalalaaa. ♪")
  ShowMessageFace("",0,0,2,42)
  ShowMessage("Deiji danced a cheerful dance!")
  ShowMessage("...But nothing happened.")
  EndEventProcessing()
  0()
 EndIf()
 If(1,11,0,3,0)
  ShowMessageFace("d_scylla_fc1",2,0,2,43)
  ShowMessage("\\n<Deiji>What is this? It's rough and I can't get to sleep.")
  250(bytes(0x04,0x08,0x6f,0x3a,0x0c,0x52,0x50,0x47,0x3a,0x3a,0x53,0x45,0x08,0x3a,0x0a,0x40,0x6e,0x61,0x6d,0x65,0x49,0x22,0x0a,0x49,0x74,0x65,0x6d,0x31,0x06,0x3a,0x06,0x45,0x54,0x3a,0x0b,0x40,0x70,0x69,0x74,0x63,0x68,0x69,0x69,0x3a,0x0c,0x40,0x76,0x6f,0x6c,0x75,0x6d,0x65,0x69,0x55))
  ChangeInventory_Item(449,0,0,1)
  ShowMessageFace("",0,0,2,44)
  ShowMessage("Deiji picked up a rock.")
  ShowMessage("You obtain a \\ii[449]!")
  EndEventProcessing()
  0()
 EndIf()
 If(1,11,0,4,0)
  ShowMessageFace("d_scylla_fc1",2,0,2,45)
  ShowMessage("\\n<Deiji>Whoa whoa, my legs are tangled!")
  355("interrupt_skill(3293)")
  EndEventProcessing()
  0()
 EndIf()
 If(1,11,0,5,0)
  ShowMessageFace("d_scylla_fc1",0,0,2,46)
  ShowMessage("\\n<Deiji>Ei! Ei!")
  355("interrupt_skill(3308)")
  EndEventProcessing()
  0()
 EndIf()
 0()
EndIf()
If(1,100,0,176,0)
 If(1,11,0,1,0)
  ShowMessageFace("vitae_fc1",0,0,2,47)
  ShowMessage("\\n<Vitae>My shoulders are so stiff...")
  ShowMessageFace("",0,0,2,48)
  ShowMessage("Vitae is wriggling.")
  EndEventProcessing()
  0()
 EndIf()
 If(1,11,0,2,0)
  ShowMessageFace("vitae_fc1",0,0,2,49)
  ShowMessage("\\n<Vitae>Please eat this...")
  ShowMessageFace("",0,0,2,50)
  ShowMessage("Vitae presents a gift!")
  250(bytes(0x04,0x08,0x6f,0x3a,0x0c,0x52,0x50,0x47,0x3a,0x3a,0x53,0x45,0x08,0x3a,0x0a,0x40,0x6e,0x61,0x6d,0x65,0x49,0x22,0x0a,0x49,0x74,0x65,0x6d,0x31,0x06,0x3a,0x06,0x45,0x54,0x3a,0x0b,0x40,0x70,0x69,0x74,0x63,0x68,0x69,0x69,0x3a,0x0c,0x40,0x76,0x6f,0x6c,0x75,0x6d,0x65,0x69,0x55))
  ChangeInventory_Item(422,0,0,1)
  ShowMessageFace("",0,0,2,51)
  ShowMessage("You obtain \\ii[422]!")
  EndEventProcessing()
  0()
 EndIf()
 If(1,11,0,3,0)
  ShowMessageFace("vitae_fc1",0,0,2,52)
  ShowMessage("\\n<Vitae>Excuse me, it seems this unit is sparking a bit.")
  355("interrupt_skill(3308)")
  EndEventProcessing()
  0()
 EndIf()
 If(1,11,0,4,0)
  ShowMessageFace("vitae_fc1",0,0,2,53)
  ShowMessage("\\n<Vitae>Everyone, do you best...")
  ShowMessageFace("",0,0,2,54)
  ShowMessage("Vitae cheered for everyone!")
  ShowMessage("...But nobody heard her.")
  EndEventProcessing()
  0()
 EndIf()
 If(1,11,0,5,0)
  ShowMessageFace("vitae_fc1",0,0,2,55)
  ShowMessage("\\n<Vitae>Would you all please stop fighting like this?")
  ShowMessageFace("",0,0,2,56)
  ShowMessage("Vitae tried to stop the fight!")
  ShowMessage("...But nobody heard her.")
  EndEventProcessing()
  0()
 EndIf()
 0()
EndIf()
If(1,100,0,177,0)
 If(1,11,0,1,0)
  ShowMessageFace("vetala_fc1",0,0,2,57)
  ShowMessage("\\n<Vetala>Big Sister is bored...")
  ShowMessageFace("",0,0,2,58)
  ShowMessage("Vetala gave a great yawn with her large mouth!")
  EndEventProcessing()
  0()
 EndIf()
 If(1,11,0,2,0)
  ShowMessageFace("vetala_fc1",0,0,2,59)
  ShowMessage("\\n<Vetala>I'm hungry. I wonder if there is anything...?")
  ShowMessageFace("",0,0,2,60)
  ShowMessage("Vetala is eating some food she stole.")
  EndEventProcessing()
  0()
 EndIf()
 If(1,11,0,3,0)
  ShowMessageFace("vetala_fc1",0,0,2,61)
  ShowMessage("\\n<Vetala>I'm completely bored...")
  355("interrupt_skill(3295)")
  EndEventProcessing()
  0()
 EndIf()
 If(1,11,0,4,0)
  ShowMessageFace("vetala_fc1",0,0,2,62)
  ShowMessage("\\n<Vetala>Why not play with your big sister?")
  ShowMessageFace("",0,0,2,63)
  ShowMessage("Vetala sent a flirtatious glance!")
  ShowMessage("However, it looked like a glare!")
  EndEventProcessing()
  0()
 EndIf()
 If(1,11,0,5,0)
  ShowMessageFace("vetala_fc1",0,0,2,64)
  ShowMessage("\\n<Vetala>Free time...")
  ShowMessageFace("",0,0,2,65)
  ShowMessage("Vetala is in a daze...")
  EndEventProcessing()
  0()
 EndIf()
 0()
EndIf()
If(1,100,0,178,0)
 If(1,11,0,1,0)
  ShowMessageFace("valt_fc1",0,0,2,66)
  ShowMessage("\\n<Valto>Restarting OS...")
  ShowMessageFace("",0,0,2,67)
  ShowMessage("Valto stopped moving...")
  313(0,178,0,17)
  EndEventProcessing()
  0()
 EndIf()
 If(1,11,0,2,0)
  ShowMessageFace("valt_fc1",0,0,2,68)
  ShowMessage("\\n<Valto>Internal pressure increased... Emergency release...")
  355("interrupt_skill(3306)")
  EndEventProcessing()
  0()
 EndIf()
 If(1,11,0,3,0)
  ShowMessageFace("valt_fc1",0,0,2,69)
  ShowMessage("\\n<Valto>Irresponsible sweeping fire...")
  355("interrupt_skill(3311)")
  EndEventProcessing()
  0()
 EndIf()
 If(1,11,0,4,0)
  ShowMessageFace("valt_fc1",3,0,2,70)
  ShowMessage("\\n<Valto>Even as a mechanical being, I can smile naturally.")
  ShowMessageFace("",0,0,2,71)
  ShowMessage("Valto smiled!")
  ShowMessage("...But nothing happened.")
  EndEventProcessing()
  0()
 EndIf()
 If(1,11,0,5,0)
  ShowMessageFace("valt_fc1",0,0,2,72)
  ShowMessage("\\n<Valto>Fire grenade... Or so I thought, this is a party popper... Surprise?")
  ShowMessageFace("",0,0,2,73)
  ShowMessage("Valto popped a party popper!")
  ShowMessage("...But nobody else joined in.")
  EndEventProcessing()
  0()
 EndIf()
 0()
EndIf()
If(1,100,0,179,0)
 If(1,11,0,1,0)
  ShowMessageFace("sinifa_fc1",0,0,2,74)
  ShowMessage("\\n<Shinifa>AhhhhHaahaaha!!")
  ShowMessageFace("",0,0,2,75)
  ShowMessage("Shinifa is laughing!")
  EndEventProcessing()
  0()
 EndIf()
 If(1,11,0,2,0)
  ShowMessageFace("sinifa_fc1",0,0,2,76)
  ShowMessage("\\n<Shinifa>Haaaaa...")
  355("interrupt_skill(3304)")
  EndEventProcessing()
  0()
 EndIf()
 If(1,11,0,3,0)
  ShowMessageFace("sinifa_fc1",0,0,2,77)
  ShowMessage("\\n<Shinifa>......")
  ShowMessageFace("",0,0,2,78)
  ShowMessage("Shinifa is in a daze...")
  EndEventProcessing()
  0()
 EndIf()
 If(1,11,0,4,0)
  ShowMessageFace("sinifa_fc1",0,0,2,79)
  ShowMessage("\\n<Shinifa>AhhhhHaahaaha!!")
  ShowMessageFace("",0,0,2,80)
  ShowMessage("Shinifa is laughing...")
  EndEventProcessing()
  0()
 EndIf()
 If(1,11,0,5,0)
  ShowMessageFace("sinifa_fc1",0,0,2,81)
  ShowMessage("\\n<Shinifa>Fuhihi...")
  355("interrupt_skill(3295)")
  EndEventProcessing()
  0()
 EndIf()
 0()
EndIf()
If(1,100,0,180,0)
 If(1,11,0,1,0)
  ShowMessageFace("shadow_fc1",0,0,2,82)
  ShowMessage("\\n<Shadow>Fox... Cat...")
  ShowMessageFace("",0,0,2,83)
  ShowMessage("Shadow is making shadow puppets with her body.")
  EndEventProcessing()
  0()
 EndIf()
 If(1,11,0,2,0)
  ShowMessageFace("shadow_fc1",0,0,2,84)
  ShowMessage("\\n<Shadow>......")
  ShowMessageFace("",0,0,2,85)
  ShowMessage("Shadow is standing silently...")
  EndEventProcessing()
  0()
 EndIf()
 If(1,11,0,3,0)
  ShowMessageFace("shadow_fc1",0,0,2,86)
  ShowMessage("\\n<Shadow>They say shadows are weak... I am a shadow...")
  ShowMessageFace("",0,0,2,87)
  ShowMessage("Shadow is complaining by herself.")
  EndEventProcessing()
  0()
 EndIf()
 If(1,11,0,4,0)
  ShowMessageFace("shadow_fc1",0,0,2,88)
  ShowMessage("\\n<Shadow>The smell of death...")
  250(bytes(0x04,0x08,0x6f,0x3a,0x0c,0x52,0x50,0x47,0x3a,0x3a,0x53,0x45,0x08,0x3a,0x0a,0x40,0x6e,0x61,0x6d,0x65,0x49,0x22,0x0a,0x49,0x74,0x65,0x6d,0x31,0x06,0x3a,0x06,0x45,0x54,0x3a,0x0b,0x40,0x70,0x69,0x74,0x63,0x68,0x69,0x69,0x3a,0x0c,0x40,0x76,0x6f,0x6c,0x75,0x6d,0x65,0x69,0x55))
  ChangeInventory_Item(444,0,0,1)
  ShowMessageFace("",0,0,2,89)
  ShowMessage("Shadow has found a skeletal corpse!")
  ShowMessage("You obtain a \\ii[444]!")
  EndEventProcessing()
  0()
 EndIf()
 If(1,11,0,5,0)
  ShowMessageFace("shadow_fc1",0,0,2,90)
  ShowMessage("\\n<Shadow>......")
  ShowMessageFace("",0,0,2,91)
  ShowMessage("Shadow has spaced out...")
  EndEventProcessing()
  0()
 EndIf()
 0()
EndIf()
0()
