﻿// EVENT 0918
Name "レア値ランクアップ"

If(1,150,0,0,2)
 ChangeVariable(150,150,0,0,1)
 0()
EndIf()
If(1,150,0,12000,1)
 If(1,151,0,0,0)
  ChangeVariable(14,14,0,1,150)
  ChangeVariable(14,14,2,0,12000)
  ChangeVariable(910,910,1,1,14)
  0()
 EndIf()
 ChangeVariable(150,150,0,0,12000)
 0()
EndIf()
0()
