// EVENT 2063
Name "Seduction: Meia"

If(0,25,1)
 EndEventProcessing()
 0()
EndIf()
355("$game_troop.lose_event_id = 3063")
ChangeVariable(26,26,0,3,3,1,4)
ChangeVariable(26,26,4,0,10)
ShowMessageFace("meia_fc1",0,0,2,1)
ShowMessage("\\n<Meia>Ara, you're strong.\nAs Queen of the Southern Seas, let me reward you.")
ShowMessageFace("meia_fc1",1,0,2,2)
ShowMessage("\\n<Meia>I'll suck your penis nice and hard.\nNow, put your penis in my mouth...")
ShowMessageFace("",0,0,2,3)
ShowMessage("Meia bends over and opens her mouth...")
ChangeSwitch(98,98,0)
ChangeSwitch(96,96,0)
ShowChoices(strings("Ignore her","Have her suck"),1)
IfPlayerPicksChoice(0,"無視する")
 ShowMessageFace("",0,0,2,4)
 ShowMessage("Luka resists her temptation!")
 RunCommonEvent(1999)
 EndEventProcessing()
 0()
IfPlayerPicksChoice(1,"しゃぶってもらう")
 0()
404()
ShowMessageFace("",0,0,2,5)
ShowMessage("Luka brings his penis to her mouth.")
ShowMessageFace("meia_fc1",1,0,2,6)
ShowMessage("\\n<Meia>Ufufu, you want me to suck you off?\nThen let me get a good taste... *Slurp*")
ChangeVariable(26,26,3,0,4)
250(bytes(0x04,0x08,0x6f,0x3a,0x0c,0x52,0x50,0x47,0x3a,0x3a,0x53,0x45,0x08,0x3a,0x0a,0x40,0x6e,0x61,0x6d,0x65,0x49,0x22,0x13,0x6d,0x6f,0x6e,0x5f,0x65,0x72,0x6f,0x5f,0x62,0x75,0x63,0x68,0x75,0x33,0x06,0x3a,0x06,0x45,0x54,0x3a,0x0b,0x40,0x70,0x69,0x74,0x63,0x68,0x69,0x69,0x3a,0x0c,0x40,0x76,0x6f,0x6c,0x75,0x6d,0x65,0x69,0x69))
355("battler_graphic_hide")
PictureDisplay(5,"ev_meia_ha1",0,0,0,0,100,100,255,0)
311(0,1,1,1,26,true)
ShowMessageFace("",0,0,2,7)
ShowMessage("Meia sucks in Luka's penis!")
ShowMessage("Her wet tongue coils around his penis!\\D")
ShowMessage("Luka takes \\V[26] damage!")
ChangeVariable(27,27,0,3,3,1,2)
If(1,27,0,0,0)
 JumpToLabel("射精1")
 0()
EndIf()
ShowMessageFace("meia_fc1",1,0,2,8)
ShowMessage("\\n<Meia>I won't go easy on you...\nYou'll come fast in my mouth.")
250(bytes(0x04,0x08,0x6f,0x3a,0x0c,0x52,0x50,0x47,0x3a,0x3a,0x53,0x45,0x08,0x3a,0x0a,0x40,0x6e,0x61,0x6d,0x65,0x49,0x22,0x13,0x6d,0x6f,0x6e,0x5f,0x65,0x72,0x6f,0x5f,0x62,0x75,0x63,0x68,0x75,0x33,0x06,0x3a,0x06,0x45,0x54,0x3a,0x0b,0x40,0x70,0x69,0x74,0x63,0x68,0x69,0x69,0x3a,0x0c,0x40,0x76,0x6f,0x6c,0x75,0x6d,0x65,0x69,0x69))
311(0,1,1,1,26,true)
ShowMessageFace("",0,0,2,9)
ShowMessage("Her tongue rubs against Luka's glans!")
ShowMessage("As she sucks, it feels like he could melt in her mouth!\\D")
ShowMessage("Luka takes \\V[26] damage!")
ChangeVariable(27,27,0,3,3,1,2)
If(1,27,0,0,0)
 JumpToLabel("射精2")
 0()
EndIf()
ShowMessageFace("meia_fc1",1,0,2,10)
ShowMessage("\\n<Meia>No man can withstand my mouth...\nHora, come...♪")
250(bytes(0x04,0x08,0x6f,0x3a,0x0c,0x52,0x50,0x47,0x3a,0x3a,0x53,0x45,0x08,0x3a,0x0a,0x40,0x6e,0x61,0x6d,0x65,0x49,0x22,0x13,0x6d,0x6f,0x6e,0x5f,0x65,0x72,0x6f,0x5f,0x62,0x75,0x63,0x68,0x75,0x33,0x06,0x3a,0x06,0x45,0x54,0x3a,0x0b,0x40,0x70,0x69,0x74,0x63,0x68,0x69,0x69,0x3a,0x0c,0x40,0x76,0x6f,0x6c,0x75,0x6d,0x65,0x69,0x69))
311(0,1,1,1,26,true)
ShowMessageFace("",0,0,2,11)
ShowMessage("Meia's tongue wraps around Luka's penis as she sucks!")
ShowMessage("Her sweet mouth technique forces him to a climax!\\D")
ShowMessage("Luka takes \\V[26] damage!")
ChangeVariable(27,27,0,3,3,1,2)
If(1,27,0,0,0)
 JumpToLabel("射精2")
 0()
EndIf()
DefineLabel("射精1")
ShowMessageFace("",0,0,2,12)
ShowMessage("\\n<Luka>Ah... Huaaa...")
RunCommonEvent(104)
PictureDisplay(5,"ev_meia_ha2",0,0,0,0,100,100,255,0)
RunCommonEvent(105)
ShowMessageFace("",0,0,2,13)
ShowMessage("The moment Meia sucked me in, I came.")
ShowMessage("Her warm mouth felt too good, I couldn't help it...")
ShowMessageFace("meia_fc1",1,0,2,14)
ShowMessage("\\n<Meia>Ufufu, instant kill blowjob.\nAn incredibly quick ejaculation. ♪")
RunCommonEvent(2000)
EndEventProcessing()
DefineLabel("射精2")
ShowMessageFace("",0,0,2,15)
ShowMessage("\\n<Luka>Huaaa...Amazing...")
RunCommonEvent(104)
PictureDisplay(5,"ev_meia_ha2",0,0,0,0,100,100,255,0)
RunCommonEvent(105)
ShowMessageFace("",0,0,2,16)
ShowMessage("Meia's blowjob forces me to come.")
ShowMessage("My semen spurts out into her warm mouth.")
ShowMessageFace("meia_fc1",1,0,2,17)
ShowMessage("\\n<Meia>Ufufu, it seems like my mouth beat you.\nAnd you let out so much, too. Ufufufu.♪")
RunCommonEvent(2000)
EndEventProcessing()
0()
