// EVENT 7363
Name "Shoki: Defeat"

RunCommonEvent(7000)
PictureDisplay(5,"80_mob_ninzya1_st01",0,0,0,0,100,100,255,0)
PictureClear(6)
ShowMessageFace("mob_ninzya1_fc1",0,0,2,1)
ShowMessage("\\n<Shoki>A win for me...\nNow let's see it...")
125(1,0,2000)
ShowMessageFace("",0,0,2,2)
ShowMessage("Luka hands over 2000G!")
ShowMessageFace("mob_ninzya1_fc1",0,0,2,3)
ShowMessage("\\n<Shoki>You can try challenging me again if you want, but the outcome will always be the same!")
ShowMessage("")
If(0,2331,1)
 PictureClear(5)
 281(1)
 TeleportPlayer(0,41,46,22,2,0)
 216(0)
 0()
EndIf()
EndEventProcessing()
0()
