﻿// EVENT 4631
Name "Naccubus 1"

If(0,25,1)
 221()
 PictureClear(5)
 PictureClear(6)
 ShowMessageFace("",0,0,2,0)
 ShowMessage("......")
 242(2)
 Wait(120)
 241(bytes(0x04,0x08,0x6f,0x3a,0x0d,0x52,0x50,0x47,0x3a,0x3a,0x42,0x47,0x4d,0x08,0x3a,0x0a,0x40,0x6e,0x61,0x6d,0x65,0x49,0x22,0x0c,0x63,0x61,0x73,0x74,0x6c,0x65,0x36,0x06,0x3a,0x06,0x45,0x54,0x3a,0x0c,0x40,0x76,0x6f,0x6c,0x75,0x6d,0x65,0x69,0x69,0x3a,0x0b,0x40,0x70,0x69,0x74,0x63,0x68,0x69,0x69))
 EndEventProcessing()
 0()
EndIf()
PictureDisplay(5,"80_narcubus_st11",0,0,0,0,100,100,255,0)
ShowMessageFace("narcubus_fc1",0,0,2,1)
ShowMessage("\\n<Nabisu>Arara? It looks like you've accumulated a lot of semen in there. Shall I extract it out with my feet?")
ShowMessageFace("narcubus_fc1",0,0,2,2)
ShowMessage("\\n<Nabisu>I'll step on you, and give a comfortable massage... You can come a lot, and feel totally refreshed. ♪")
ShowMessageFace("",0,0,2,3)
ShowMessage("\\n<Luka>P-please...")
ShowMessageFace("narcubus_fc1",0,0,2,4)
ShowMessage("\\n<Nabisu>All right, then please take out your penis. ♪")
PictureDisplay(5,"ev_narcubus_hb1",0,0,0,0,100,100,0,0)
PictureMove(5,null,0,0,0,0,100,100,255,0,30,true)
241(bytes(0x04,0x08,0x6f,0x3a,0x0d,0x52,0x50,0x47,0x3a,0x3a,0x42,0x47,0x4d,0x08,0x3a,0x0a,0x40,0x6e,0x61,0x6d,0x65,0x49,0x22,0x09,0x65,0x72,0x6f,0x31,0x06,0x3a,0x06,0x45,0x54,0x3a,0x0c,0x40,0x76,0x6f,0x6c,0x75,0x6d,0x65,0x69,0x69,0x3a,0x0b,0x40,0x70,0x69,0x74,0x63,0x68,0x69,0x69))
245(bytes(0x04,0x08,0x6f,0x3a,0x0d,0x52,0x50,0x47,0x3a,0x3a,0x42,0x47,0x53,0x08,0x3a,0x0a,0x40,0x6e,0x61,0x6d,0x65,0x49,0x22,0x17,0x6d,0x6f,0x6e,0x5f,0x68,0x73,0x65,0x61,0x6e,0x31,0x37,0x5f,0x73,0x69,0x67,0x6f,0x6b,0x69,0x06,0x3a,0x06,0x45,0x54,0x3a,0x0c,0x40,0x76,0x6f,0x6c,0x75,0x6d,0x65,0x69,0x55,0x3a,0x0b,0x40,0x70,0x69,0x74,0x63,0x68,0x69,0x69))
ShowMessageFace("",0,0,2,5)
ShowMessage("Nabisu's feet press against my penis.\nHer touch is warm and soft... But slightly frustrating.")
ShowMessageFace("",0,0,2,6)
ShowMessage("\\n<Luka>Ooooh...!")
ShowMessageFace("narcubus_fc1",0,0,2,7)
ShowMessage("\\n<Nabisu>Fufufu, Does it feel nice?\nIt's time to start the massage. ♪")
ShowMessageFace("",0,0,2,8)
ShowMessage("Nabisu slowly starts to rub her feet against my penis.\nWith the soles of her right and left feet, she rolls and presses my cock between them.")
ShowMessageFace("",0,0,2,9)
ShowMessage("Sometimes her deft toes rub against the neck of my penis.\nAt other times, her big toe rubs against my glans.")
ShowMessageFace("",0,0,2,10)
ShowMessage("\\n<Luka>Ooooh...!")
PictureDisplay(5,"ev_narcubus_hb2",0,0,0,0,100,100,255,0)
ShowMessageFace("narcubus_fc1",0,0,2,11)
ShowMessage("\\n<Nabisu>Don't hold back, just come.\nIt's a foot massage, just for that purpose.")
ShowMessageFace("",0,0,2,12)
ShowMessage("A footjob just to give pleasure.\nFeeling too good to resist, I'm already nearing an orgasm.")
ShowMessageFace("",0,0,2,13)
ShowMessage("\\n<Luka>N-noooo...Unnngh...!")
ShowMessageFace("",0,0,2,14)
ShowMessage("The immoral feeling of having a girl's feet play with my penis... Even more, she's going to make me come with them.")
ShowMessageFace("",0,0,2,15)
ShowMessage("The pleasure far outweighs any shame from being forced to come by her feet. Submitting, I surrender to Nabisu's feet.")
ShowMessageFace("narcubus_fc1",0,0,2,16)
ShowMessage("\\n<Nabisu>Ahah, you have such a lewd face.\nDon't misunderstand this situation. It's just a medical act. ♪")
ShowMessageFace("",0,0,2,17)
ShowMessage("Nabisu squeezes my penis with both feet.\nMoving her feet, she's rolling my penis between her two soles.")
ShowMessageFace("",0,0,2,18)
ShowMessage("My penis is being kneaded by her small feet...\nOvercome by the sensation, I moan out loud.")
ShowMessageFace("",0,0,2,19)
ShowMessage("\\n<Luka>Ah, hnnngh...!")
ShowMessageFace("narcubus_fc1",0,0,2,20)
ShowMessage("\\n<Nabisu>Does this feel nice?\nThen let me make you come with my feet. ♪")
ShowMessageFace("",0,0,2,21)
ShowMessage("Nabisu rolls my penis even faster between her feet.\nShe's going to force me to come with her deft footjob.")
ShowMessageFace("",0,0,2,22)
ShowMessage("As her toes rub against my glans, I'm finally unable to endure it any longer.")
ShowMessageFace("",0,0,2,23)
ShowMessage("\\n<Luka>Ah, aaaah...!!")
RunCommonEvent(104)
PictureDisplay(5,"ev_narcubus_hb3",0,0,0,0,100,100,255,0)
RunCommonEvent(105)
ShowMessageFace("",0,0,2,24)
ShowMessage("As Nabisu's feet rub me, I come.\nMy semen scatters everywhere as I gasp.")
ShowMessageFace("",0,0,2,25)
ShowMessage("The semen I shot everywhere falls down, and lands on Nabisu's body.")
PictureDisplay(5,"ev_narcubus_hb4",0,0,0,0,100,100,255,0)
ShowMessageFace("",0,0,2,26)
ShowMessage("Her body is covered in my semen...")
246(2)
ShowMessageFace("narcubus_fc1",0,0,2,27)
ShowMessage("\\n<Nabisu>Good job, you came a lot.\nDid it feel good?")
ShowMessageFace("",0,0,2,28)
ShowMessage("\\n<Luka>Unnngh...")
ShowMessageFace("",0,0,2,29)
ShowMessage("Soaking in ecstasy after my orgasm, I'm left weak.\nI can't even reply to her right now.")
ShowMessageFace("narcubus_fc1",0,0,2,30)
ShowMessage("\\n<Nabisu>It's not good to let it accumulate like that.\nOnce you accumulate a lot again, I'll extract it all out...♪")
ShowMessageFace("",0,0,2,31)
ShowMessage("Nabisu looks down at my weak self, and smiles.")
221()
PictureClear(5)
PictureClear(6)
ShowMessageFace("",0,0,2,32)
ShowMessage("......")
242(2)
Wait(120)
241(bytes(0x04,0x08,0x6f,0x3a,0x0d,0x52,0x50,0x47,0x3a,0x3a,0x42,0x47,0x4d,0x08,0x3a,0x0a,0x40,0x6e,0x61,0x6d,0x65,0x49,0x22,0x0c,0x63,0x61,0x73,0x74,0x6c,0x65,0x36,0x06,0x3a,0x06,0x45,0x54,0x3a,0x0c,0x40,0x76,0x6f,0x6c,0x75,0x6d,0x65,0x69,0x69,0x3a,0x0b,0x40,0x70,0x69,0x74,0x63,0x68,0x69,0x69))
0()
